EESchema Schematic File Version 4
EELAYER 30 0
EELAYER END
$Descr A3 16535 11693
encoding utf-8
Sheet 1 1
Title "Millibot - zadnja ploščica"
Date "2021-04-10"
Rev ""
Comp "Fakulteta za strojništvo, Univerza v Ljubljani"
Comment1 ""
Comment2 ""
Comment3 ""
Comment4 ""
$EndDescr
$Comp
L Connector_Generic:Conn_02x10_Odd_Even J2
U 1 1 6071C940
P 14650 6500
F 0 "J2" H 14700 7117 50  0000 C CNN
F 1 "To bottom plate" H 14700 7026 50  0000 C CNN
F 2 "Molex_SlimStack:SlimStack_0.8mm_Male_20" H 14650 6500 50  0001 C CNN
F 3 "~" H 14650 6500 50  0001 C CNN
	1    14650 6500
	1    0    0    -1  
$EndComp
$Comp
L power:GND #PWR04
U 1 1 60743F80
P 4100 3750
F 0 "#PWR04" H 4100 3500 50  0001 C CNN
F 1 "GND" H 4105 3577 50  0000 C CNN
F 2 "" H 4100 3750 50  0001 C CNN
F 3 "" H 4100 3750 50  0001 C CNN
	1    4100 3750
	1    0    0    -1  
$EndComp
$Comp
L Device:C C2
U 1 1 6074CD45
P 3650 2650
F 0 "C2" H 3765 2696 50  0000 L CNN
F 1 "0.1uF" H 3765 2605 50  0000 L CNN
F 2 "Capacitor_SMD:C_0603_1608Metric" H 3688 2500 50  0001 C CNN
F 3 "~" H 3650 2650 50  0001 C CNN
	1    3650 2650
	1    0    0    -1  
$EndComp
$Comp
L Device:C C1
U 1 1 6074E44F
P 3200 2650
F 0 "C1" H 3315 2696 50  0000 L CNN
F 1 "22uF" H 3315 2605 50  0000 L CNN
F 2 "Capacitor_SMD:C_0603_1608Metric" H 3238 2500 50  0001 C CNN
F 3 "~" H 3200 2650 50  0001 C CNN
	1    3200 2650
	1    0    0    -1  
$EndComp
$Comp
L power:GND #PWR02
U 1 1 60751975
P 3200 3000
F 0 "#PWR02" H 3200 2750 50  0001 C CNN
F 1 "GND" H 3205 2827 50  0000 C CNN
F 2 "" H 3200 3000 50  0001 C CNN
F 3 "" H 3200 3000 50  0001 C CNN
	1    3200 3000
	1    0    0    -1  
$EndComp
$Comp
L power:+3V3 #PWR01
U 1 1 60752E90
P 3200 2250
F 0 "#PWR01" H 3200 2100 50  0001 C CNN
F 1 "+3V3" H 3215 2423 50  0000 C CNN
F 2 "" H 3200 2250 50  0001 C CNN
F 3 "" H 3200 2250 50  0001 C CNN
	1    3200 2250
	1    0    0    -1  
$EndComp
Wire Wire Line
	3200 2250 3200 2350
Connection ~ 3200 2350
Text GLabel 2250 8650 0    50   Input ~ 0
USB_D+
Text GLabel 2250 8750 0    50   Input ~ 0
USB_D-
Wire Wire Line
	2250 8650 2550 8650
Wire Wire Line
	2250 8750 2550 8750
Wire Wire Line
	2550 9750 2550 10150
Wire Wire Line
	2550 10150 3150 10150
Wire Wire Line
	3550 10150 3550 10050
Wire Wire Line
	3450 10050 3450 10150
Connection ~ 3450 10150
Wire Wire Line
	3450 10150 3550 10150
Wire Wire Line
	3350 10050 3350 10150
Connection ~ 3350 10150
Wire Wire Line
	3350 10150 3450 10150
Wire Wire Line
	3150 10050 3150 10150
Connection ~ 3150 10150
Wire Wire Line
	3150 10150 3350 10150
$Comp
L power:GND #PWR07
U 1 1 607A45DE
P 3350 10250
F 0 "#PWR07" H 3350 10000 50  0001 C CNN
F 1 "GND" H 3355 10077 50  0000 C CNN
F 2 "" H 3350 10250 50  0001 C CNN
F 3 "" H 3350 10250 50  0001 C CNN
	1    3350 10250
	1    0    0    -1  
$EndComp
Wire Wire Line
	3350 10150 3350 10250
$Comp
L Device:C C3
U 1 1 607A6835
P 2050 8350
F 0 "C3" V 1798 8350 50  0000 C CNN
F 1 "100nF" V 1889 8350 50  0000 C CNN
F 2 "Capacitor_SMD:C_0603_1608Metric" H 2088 8200 50  0001 C CNN
F 3 "~" H 2050 8350 50  0001 C CNN
	1    2050 8350
	0    1    1    0   
$EndComp
$Comp
L power:GND #PWR03
U 1 1 607A8E9D
P 1650 8400
F 0 "#PWR03" H 1650 8150 50  0001 C CNN
F 1 "GND" H 1655 8227 50  0000 C CNN
F 2 "" H 1650 8400 50  0001 C CNN
F 3 "" H 1650 8400 50  0001 C CNN
	1    1650 8400
	1    0    0    -1  
$EndComp
Wire Wire Line
	1650 8400 1650 8350
Wire Wire Line
	1650 8350 1900 8350
Wire Wire Line
	2200 8350 2550 8350
$Comp
L power:GND #PWR06
U 1 1 607AED7D
P 2550 7750
F 0 "#PWR06" H 2550 7500 50  0001 C CNN
F 1 "GND" H 2555 7577 50  0000 C CNN
F 2 "" H 2550 7750 50  0001 C CNN
F 3 "" H 2550 7750 50  0001 C CNN
	1    2550 7750
	1    0    0    -1  
$EndComp
$Comp
L Device:C C5
U 1 1 607B01A5
P 2750 7550
F 0 "C5" H 2865 7596 50  0000 L CNN
F 1 "4.7uF" H 2865 7505 50  0000 L CNN
F 2 "Capacitor_SMD:C_0603_1608Metric" H 2788 7400 50  0001 C CNN
F 3 "~" H 2750 7550 50  0001 C CNN
	1    2750 7550
	1    0    0    -1  
$EndComp
Wire Wire Line
	3450 7400 3450 8050
Wire Wire Line
	3250 8050 3250 7400
Connection ~ 3250 7400
Wire Wire Line
	3250 7400 3450 7400
Wire Wire Line
	2750 7400 3250 7400
Wire Wire Line
	2350 7400 2550 7400
Connection ~ 2750 7400
$Comp
L power:+5V #PWR05
U 1 1 607CDB2B
P 2550 7350
F 0 "#PWR05" H 2550 7200 50  0001 C CNN
F 1 "+5V" H 2565 7523 50  0000 C CNN
F 2 "" H 2550 7350 50  0001 C CNN
F 3 "" H 2550 7350 50  0001 C CNN
	1    2550 7350
	1    0    0    -1  
$EndComp
Text GLabel 4950 8350 2    50   Output ~ 0
UART_RX_TX
Text GLabel 4950 8450 2    50   Input ~ 0
UART_TX_RX
Wire Wire Line
	4150 8350 4950 8350
Wire Wire Line
	4150 8450 4950 8450
Text GLabel 4950 8750 2    50   Output ~ 0
RST
Wire Wire Line
	4150 8750 4950 8750
$Comp
L Device:LED D2
U 1 1 607DA4A0
P 4300 7550
F 0 "D2" V 4339 7432 50  0000 R CNN
F 1 "LED_TX" V 4248 7432 50  0000 R CNN
F 2 "LED_SMD:LED_0805_2012Metric" H 4300 7550 50  0001 C CNN
F 3 "~" H 4300 7550 50  0001 C CNN
	1    4300 7550
	0    -1   -1   0   
$EndComp
$Comp
L Device:LED D3
U 1 1 607DBC35
P 4750 7550
F 0 "D3" V 4789 7432 50  0000 R CNN
F 1 "LED_RX" V 4698 7432 50  0000 R CNN
F 2 "LED_SMD:LED_0805_2012Metric" H 4750 7550 50  0001 C CNN
F 3 "~" H 4750 7550 50  0001 C CNN
	1    4750 7550
	0    -1   -1   0   
$EndComp
$Comp
L Device:R R2
U 1 1 607DEB09
P 4300 7850
F 0 "R2" H 4370 7896 50  0000 L CNN
F 1 "1k" H 4370 7805 50  0000 L CNN
F 2 "Resistor_SMD:R_0402_1005Metric" V 4230 7850 50  0001 C CNN
F 3 "~" H 4300 7850 50  0001 C CNN
	1    4300 7850
	1    0    0    -1  
$EndComp
$Comp
L Device:R R3
U 1 1 607DFB3E
P 4750 7850
F 0 "R3" H 4820 7896 50  0000 L CNN
F 1 "1k" H 4820 7805 50  0000 L CNN
F 2 "Resistor_SMD:R_0402_1005Metric" V 4680 7850 50  0001 C CNN
F 3 "~" H 4750 7850 50  0001 C CNN
	1    4750 7850
	1    0    0    -1  
$EndComp
Wire Wire Line
	3450 7400 4300 7400
Connection ~ 3450 7400
Wire Wire Line
	4750 7400 4300 7400
Connection ~ 4300 7400
Wire Wire Line
	4300 8000 4300 9350
Wire Wire Line
	4300 9350 4150 9350
Wire Wire Line
	4750 8000 4750 9450
Wire Wire Line
	4750 9450 4150 9450
$Comp
L Device:C C4
U 1 1 607E8B72
P 2350 7550
F 0 "C4" H 2465 7596 50  0000 L CNN
F 1 "100nF" H 2465 7505 50  0000 L CNN
F 2 "Capacitor_SMD:C_0603_1608Metric" H 2388 7400 50  0001 C CNN
F 3 "~" H 2350 7550 50  0001 C CNN
	1    2350 7550
	1    0    0    -1  
$EndComp
Wire Wire Line
	2350 7700 2550 7700
Wire Wire Line
	2550 7750 2550 7700
Wire Wire Line
	2750 7700 2550 7700
Connection ~ 2550 7700
Wire Wire Line
	2550 7350 2550 7400
Connection ~ 2550 7400
Wire Wire Line
	2550 7400 2750 7400
$Comp
L Device:LED D1
U 1 1 6088B19C
P 2650 2500
F 0 "D1" V 2689 2382 50  0000 R CNN
F 1 "LED_PWR" V 2598 2382 50  0000 R CNN
F 2 "LED_SMD:LED_0805_2012Metric" H 2650 2500 50  0001 C CNN
F 3 "~" H 2650 2500 50  0001 C CNN
	1    2650 2500
	0    -1   -1   0   
$EndComp
$Comp
L Device:R R1
U 1 1 6088B1A2
P 2650 2800
F 0 "R1" H 2720 2846 50  0000 L CNN
F 1 "1k" H 2720 2755 50  0000 L CNN
F 2 "Resistor_SMD:R_0402_1005Metric" V 2580 2800 50  0001 C CNN
F 3 "~" H 2650 2800 50  0001 C CNN
	1    2650 2800
	1    0    0    -1  
$EndComp
Wire Wire Line
	3200 2350 2650 2350
Wire Wire Line
	2650 2950 3200 2950
Wire Wire Line
	3200 2950 3200 3000
Wire Wire Line
	3200 2350 3650 2350
Wire Wire Line
	3650 2350 3650 2500
Wire Wire Line
	3200 2350 3200 2500
Wire Wire Line
	3200 2800 3200 2950
Connection ~ 3200 2950
Wire Wire Line
	3200 2950 3650 2950
Wire Wire Line
	3650 2950 3650 2800
$Comp
L Device:Ferrite_Bead FB1
U 1 1 608BA1B1
P 9050 8400
F 0 "FB1" H 9187 8446 50  0000 L CNN
F 1 "Ferrite_Bead" H 9187 8355 50  0000 L CNN
F 2 "Resistor_SMD:R_0402_1005Metric" V 8980 8400 50  0001 C CNN
F 3 "~" H 9050 8400 50  0001 C CNN
	1    9050 8400
	0    -1   -1   0   
$EndComp
$Comp
L Connector:USB_B_Mini J3
U 1 1 608C05F4
P 7650 8600
F 0 "J3" H 7707 9067 50  0000 C CNN
F 1 "USB_B_Mini" H 7707 8976 50  0000 C CNN
F 2 "millibot_specific_footprints:USB_Mini-B_Molex_675031020_Horizontal" H 7800 8550 50  0001 C CNN
F 3 "~" H 7800 8550 50  0001 C CNN
	1    7650 8600
	1    0    0    -1  
$EndComp
$Comp
L power:GND #PWR011
U 1 1 608C743A
P 8800 9150
F 0 "#PWR011" H 8800 8900 50  0001 C CNN
F 1 "GND" H 8805 8977 50  0000 C CNN
F 2 "" H 8800 9150 50  0001 C CNN
F 3 "" H 8800 9150 50  0001 C CNN
	1    8800 9150
	1    0    0    -1  
$EndComp
$Comp
L power:+5V #PWR012
U 1 1 608C8C61
P 9400 8350
F 0 "#PWR012" H 9400 8200 50  0001 C CNN
F 1 "+5V" H 9415 8523 50  0000 C CNN
F 2 "" H 9400 8350 50  0001 C CNN
F 3 "" H 9400 8350 50  0001 C CNN
	1    9400 8350
	1    0    0    -1  
$EndComp
Wire Wire Line
	9200 8400 9400 8400
Wire Wire Line
	9400 8400 9400 8350
$Comp
L Device:C C8
U 1 1 608D17AC
P 8800 8650
F 0 "C8" H 8915 8696 50  0000 L CNN
F 1 "C" H 8915 8605 50  0000 L CNN
F 2 "Capacitor_SMD:C_0603_1608Metric" H 8838 8500 50  0001 C CNN
F 3 "~" H 8800 8650 50  0001 C CNN
	1    8800 8650
	1    0    0    -1  
$EndComp
Wire Wire Line
	7950 8400 8800 8400
Wire Wire Line
	8800 8500 8800 8400
Connection ~ 8800 8400
Wire Wire Line
	8800 8400 8900 8400
Wire Wire Line
	8800 8800 8800 9050
Wire Wire Line
	7650 9000 7650 9050
Wire Wire Line
	7650 9050 8800 9050
Connection ~ 8800 9050
Wire Wire Line
	8800 9050 8800 9150
Text GLabel 8250 8600 2    50   Output ~ 0
USB_D+
Text GLabel 8250 8700 2    50   Output ~ 0
USB_D-
Wire Wire Line
	7950 8600 8250 8600
Wire Wire Line
	7950 8700 8250 8700
NoConn ~ 7950 8800
NoConn ~ 7550 9000
$Comp
L Connector_Generic:Conn_02x10_Odd_Even J1
U 1 1 6071AAFD
P 14550 3750
F 0 "J1" H 14600 4367 50  0000 C CNN
F 1 "To top plate" H 14600 4276 50  0000 C CNN
F 2 "Molex_SlimStack:SlimStack_0.8mm_Male_20" H 14550 3750 50  0001 C CNN
F 3 "~" H 14550 3750 50  0001 C CNN
	1    14550 3750
	1    0    0    -1  
$EndComp
$Comp
L FT232RQ:FT232RQ U1
U 1 1 60876DA1
P 3350 9050
F 0 "U1" H 3350 10231 50  0000 C CNN
F 1 "FT232RQ" H 3350 10140 50  0000 C CNN
F 2 "Package_DFN_QFN:QFN-32-1EP_5x5mm_P0.5mm_EP3.3x3.3mm" H 4450 8150 50  0001 C CNN
F 3 "https://www.ftdichip.com/Support/Documents/DataSheets/ICs/DS_FT232R.pdf" H 3350 9050 50  0001 C CNN
	1    3350 9050
	1    0    0    -1  
$EndComp
Wire Wire Line
	8600 1650 8600 1400
Wire Wire Line
	7100 1400 7100 1650
Wire Wire Line
	7200 1650 7200 1400
Connection ~ 7200 1400
Wire Wire Line
	7200 1400 7100 1400
Wire Wire Line
	7300 1650 7300 1400
Connection ~ 7300 1400
Wire Wire Line
	7300 1400 7200 1400
Wire Wire Line
	7400 1650 7400 1400
Connection ~ 7400 1400
Wire Wire Line
	7400 1400 7300 1400
Wire Wire Line
	7500 1650 7500 1400
Connection ~ 7500 1400
Wire Wire Line
	7500 1400 7400 1400
Wire Wire Line
	7600 1650 7600 1400
Connection ~ 7600 1400
Wire Wire Line
	7600 1400 7500 1400
Wire Wire Line
	7700 1650 7700 1400
Connection ~ 7700 1400
Wire Wire Line
	7700 1400 7600 1400
Wire Wire Line
	7800 1650 7800 1400
Connection ~ 7800 1400
Wire Wire Line
	7800 1400 7700 1400
Wire Wire Line
	7900 1650 7900 1400
Connection ~ 7900 1400
Wire Wire Line
	7900 1400 7800 1400
Wire Wire Line
	8000 1650 8000 1400
Connection ~ 8000 1400
Wire Wire Line
	8000 1400 7900 1400
Wire Wire Line
	8100 1650 8100 1400
Wire Wire Line
	8000 1400 8100 1400
Connection ~ 8100 1400
Wire Wire Line
	8100 1400 8200 1400
Wire Wire Line
	8200 1650 8200 1400
Connection ~ 8200 1400
Wire Wire Line
	8200 1400 8300 1400
Wire Wire Line
	8300 1650 8300 1400
Connection ~ 8300 1400
Wire Wire Line
	8300 1400 8400 1400
Wire Wire Line
	8400 1650 8400 1400
Connection ~ 8400 1400
Wire Wire Line
	8400 1400 8500 1400
Wire Wire Line
	8500 1650 8500 1400
Connection ~ 8500 1400
Wire Wire Line
	8500 1400 8600 1400
$Comp
L power:GND #PWR08
U 1 1 60747D50
P 9350 4350
F 0 "#PWR08" H 9350 4100 50  0001 C CNN
F 1 "GND" H 9355 4177 50  0000 C CNN
F 2 "" H 9350 4350 50  0001 C CNN
F 3 "" H 9350 4350 50  0001 C CNN
	1    9350 4350
	1    0    0    -1  
$EndComp
Wire Wire Line
	9100 3750 9350 3750
Wire Wire Line
	9350 3750 9350 4200
Wire Wire Line
	8600 4050 8600 4200
Wire Wire Line
	8600 4200 9350 4200
Connection ~ 9350 4200
Wire Wire Line
	9350 4200 9350 4350
Wire Wire Line
	9100 1950 9350 1950
Wire Wire Line
	9350 1950 9350 2350
Connection ~ 9350 3750
Wire Wire Line
	9100 2350 9350 2350
Connection ~ 9350 2350
Wire Wire Line
	9350 2350 9350 2450
Wire Wire Line
	9100 2450 9350 2450
Connection ~ 9350 2450
Wire Wire Line
	9350 2450 9350 3750
Text GLabel 9750 2750 2    50   Output ~ 0
UART_TX_RX
Text GLabel 9750 2650 2    50   Input ~ 0
UART_RX_TX
Wire Wire Line
	9100 2650 9750 2650
Wire Wire Line
	9100 2750 9750 2750
$Comp
L power:+3V3 #PWR09
U 1 1 6077DC0E
P 9750 1700
F 0 "#PWR09" H 9750 1550 50  0001 C CNN
F 1 "+3V3" H 9765 1873 50  0000 C CNN
F 2 "" H 9750 1700 50  0001 C CNN
F 3 "" H 9750 1700 50  0001 C CNN
	1    9750 1700
	1    0    0    -1  
$EndComp
$Comp
L Device:R R4
U 1 1 6075A3B7
P 9750 1850
F 0 "R4" H 9820 1896 50  0000 L CNN
F 1 "10k" H 9820 1805 50  0000 L CNN
F 2 "Resistor_SMD:R_0402_1005Metric" V 9680 1850 50  0001 C CNN
F 3 "~" H 9750 1850 50  0001 C CNN
	1    9750 1850
	1    0    0    -1  
$EndComp
Wire Wire Line
	9100 2150 9750 2150
Wire Wire Line
	9750 2000 9750 2150
Wire Wire Line
	10850 2300 11000 2300
Wire Wire Line
	9750 2150 11000 2150
Connection ~ 9750 2150
Connection ~ 11000 2300
Wire Wire Line
	11000 2300 11150 2300
Wire Wire Line
	11000 2700 11000 2800
Wire Wire Line
	10850 2700 11000 2700
Wire Wire Line
	10950 2550 10900 2550
$Comp
L power:GND #PWR010
U 1 1 6076A561
P 11000 2800
F 0 "#PWR010" H 11000 2550 50  0001 C CNN
F 1 "GND" H 11005 2627 50  0000 C CNN
F 2 "" H 11000 2800 50  0001 C CNN
F 3 "" H 11000 2800 50  0001 C CNN
	1    11000 2800
	1    0    0    -1  
$EndComp
$Comp
L Switch:SW_Push SW1
U 1 1 6075C527
P 11150 2500
F 0 "SW1" V 11104 2648 50  0000 L CNN
F 1 "SW_RST" V 11195 2648 50  0000 L CNN
F 2 "millibot_specific_footprints:EVPBB2A9B000" H 11150 2700 50  0001 C CNN
F 3 "~" H 11150 2700 50  0001 C CNN
	1    11150 2500
	0    1    1    0   
$EndComp
$Comp
L Device:C C6
U 1 1 6075B14A
P 10850 2500
F 0 "C6" H 10965 2546 50  0000 L CNN
F 1 "C" H 10965 2455 50  0000 L CNN
F 2 "Capacitor_SMD:C_0603_1608Metric" H 10888 2350 50  0001 C CNN
F 3 "~" H 10850 2500 50  0001 C CNN
	1    10850 2500
	1    0    0    -1  
$EndComp
Wire Wire Line
	10850 2300 10850 2350
Wire Wire Line
	10850 2650 10850 2700
Wire Wire Line
	11000 2150 11000 2300
Connection ~ 11000 2700
Wire Wire Line
	11000 2700 11150 2700
Text GLabel 11750 2150 2    50   Input ~ 0
RST
Wire Wire Line
	11000 2150 11350 2150
Connection ~ 11000 2150
$Comp
L Device:C C7
U 1 1 6087A30D
P 11500 2150
F 0 "C7" V 11248 2150 50  0000 C CNN
F 1 "100nF" V 11339 2150 50  0000 C CNN
F 2 "Capacitor_SMD:C_0603_1608Metric" H 11538 2000 50  0001 C CNN
F 3 "~" H 11500 2150 50  0001 C CNN
	1    11500 2150
	0    1    1    0   
$EndComp
Wire Wire Line
	11650 2150 11750 2150
Connection ~ 3650 2350
Wire Wire Line
	4100 2250 4100 2900
Connection ~ 4100 2250
Wire Wire Line
	4100 2150 4100 2250
Connection ~ 4100 2150
Wire Wire Line
	4100 1400 4100 1950
Wire Wire Line
	4100 1950 4100 2150
Connection ~ 4100 1950
Connection ~ 4100 3750
$Comp
L Switch:SW_Push SW2
U 1 1 609068EA
P 4250 2700
F 0 "SW2" V 4204 2848 50  0000 L CNN
F 1 "SW_BOOT" V 4295 2848 50  0000 L CNN
F 2 "millibot_specific_footprints:EVPBB2A9B000" H 4250 2900 50  0001 C CNN
F 3 "~" H 4250 2900 50  0001 C CNN
	1    4250 2700
	0    1    1    0   
$EndComp
Wire Wire Line
	4100 2900 4250 2900
Connection ~ 4100 2900
Wire Wire Line
	4100 2900 4100 3750
Wire Wire Line
	4250 2450 4250 2500
$Comp
L power:+3V3 #PWR0101
U 1 1 609EA5D2
P 14000 3350
F 0 "#PWR0101" H 14000 3200 50  0001 C CNN
F 1 "+3V3" H 14015 3523 50  0000 C CNN
F 2 "" H 14000 3350 50  0001 C CNN
F 3 "" H 14000 3350 50  0001 C CNN
	1    14000 3350
	1    0    0    -1  
$EndComp
$Comp
L power:GND #PWR0103
U 1 1 609EC111
P 15400 3750
F 0 "#PWR0103" H 15400 3500 50  0001 C CNN
F 1 "GND" H 15405 3577 50  0000 C CNN
F 2 "" H 15400 3750 50  0001 C CNN
F 3 "" H 15400 3750 50  0001 C CNN
	1    15400 3750
	1    0    0    -1  
$EndComp
$Comp
L power:GND #PWR0104
U 1 1 609ED447
P 13550 3750
F 0 "#PWR0104" H 13550 3500 50  0001 C CNN
F 1 "GND" H 13555 3577 50  0000 C CNN
F 2 "" H 13550 3750 50  0001 C CNN
F 3 "" H 13550 3750 50  0001 C CNN
	1    13550 3750
	1    0    0    -1  
$EndComp
$Comp
L power:+5V #PWR0106
U 1 1 609EDFA3
P 13800 3550
F 0 "#PWR0106" H 13800 3400 50  0001 C CNN
F 1 "+5V" H 13815 3723 50  0000 C CNN
F 2 "" H 13800 3550 50  0001 C CNN
F 3 "" H 13800 3550 50  0001 C CNN
	1    13800 3550
	1    0    0    -1  
$EndComp
Wire Wire Line
	14000 3350 14250 3350
$Comp
L power:+3V3 #PWR0108
U 1 1 60A21C2E
P 15900 7000
F 0 "#PWR0108" H 15900 6850 50  0001 C CNN
F 1 "+3V3" H 15915 7173 50  0000 C CNN
F 2 "" H 15900 7000 50  0001 C CNN
F 3 "" H 15900 7000 50  0001 C CNN
	1    15900 7000
	1    0    0    -1  
$EndComp
$Comp
L power:GND #PWR0109
U 1 1 60A389A4
P 15900 6500
F 0 "#PWR0109" H 15900 6250 50  0001 C CNN
F 1 "GND" H 15905 6327 50  0000 C CNN
F 2 "" H 15900 6500 50  0001 C CNN
F 3 "" H 15900 6500 50  0001 C CNN
	1    15900 6500
	1    0    0    -1  
$EndComp
Wire Wire Line
	14950 6600 15100 6600
Wire Wire Line
	15100 6600 15100 6500
Connection ~ 15100 6500
Wire Wire Line
	15100 6500 14950 6500
$Comp
L power:GND #PWR0110
U 1 1 60A3EFAD
P 13150 6500
F 0 "#PWR0110" H 13150 6250 50  0001 C CNN
F 1 "GND" H 13155 6327 50  0000 C CNN
F 2 "" H 13150 6500 50  0001 C CNN
F 3 "" H 13150 6500 50  0001 C CNN
	1    13150 6500
	1    0    0    -1  
$EndComp
Wire Wire Line
	14450 6500 14250 6500
Wire Wire Line
	14450 6600 14250 6600
Wire Wire Line
	14250 6600 14250 6500
$Comp
L Device:R R6
U 1 1 609ECB5A
P 7850 4900
F 0 "R6" H 7920 4946 50  0000 L CNN
F 1 "4.7k" H 7920 4855 50  0000 L CNN
F 2 "Resistor_SMD:R_0402_1005Metric" V 7780 4900 50  0001 C CNN
F 3 "~" H 7850 4900 50  0001 C CNN
	1    7850 4900
	1    0    0    -1  
$EndComp
$Comp
L Device:R R5
U 1 1 609EE9D4
P 8150 4900
F 0 "R5" H 8220 4946 50  0000 L CNN
F 1 "4.7k" H 8220 4855 50  0000 L CNN
F 2 "Resistor_SMD:R_0402_1005Metric" V 8080 4900 50  0001 C CNN
F 3 "~" H 8150 4900 50  0001 C CNN
	1    8150 4900
	1    0    0    -1  
$EndComp
Wire Wire Line
	4100 1400 7100 1400
Connection ~ 7100 1400
Wire Wire Line
	4100 1950 6700 1950
Wire Wire Line
	4100 2150 6700 2150
Wire Wire Line
	4100 2250 6700 2250
Wire Wire Line
	4100 3750 6700 3750
Wire Wire Line
	4250 2450 6700 2450
Text GLabel 8400 5300 3    50   Output ~ 0
I2C_SDA
Text GLabel 8500 5300 3    50   Output ~ 0
I2C_CLK
Text GLabel 15300 6100 2    50   Input ~ 0
I2C_SDA
Wire Wire Line
	14950 7000 15050 7000
Text GLabel 15300 6200 2    50   Input ~ 0
I2C_CLK
Wire Wire Line
	14350 3450 14250 3450
Wire Wire Line
	14250 3450 14250 3350
Connection ~ 14250 3350
Wire Wire Line
	14250 3350 14350 3350
Text GLabel 15200 3350 2    50   Input ~ 0
BUZZ
Wire Wire Line
	14850 3350 15200 3350
Wire Wire Line
	13800 3550 14250 3550
Wire Wire Line
	14350 3650 14250 3650
Wire Wire Line
	14250 3650 14250 3550
Connection ~ 14250 3550
Wire Wire Line
	14250 3550 14350 3550
Wire Wire Line
	14850 3750 14950 3750
Wire Wire Line
	14850 3850 14950 3850
Wire Wire Line
	14950 3850 14950 3750
Connection ~ 14950 3750
Wire Wire Line
	14950 3750 15400 3750
Wire Wire Line
	14850 3950 14950 3950
Wire Wire Line
	14950 3950 14950 3850
Connection ~ 14950 3850
Wire Wire Line
	14850 4050 14950 4050
Wire Wire Line
	14950 4050 14950 3950
Connection ~ 14950 3950
Wire Wire Line
	14850 4150 14950 4150
Wire Wire Line
	14950 4150 14950 4050
Connection ~ 14950 4050
Wire Wire Line
	14850 4250 14950 4250
Wire Wire Line
	14950 4250 14950 4150
Connection ~ 14950 4150
Text GLabel 14100 3950 0    50   Input ~ 0
I2C_CLK
Wire Wire Line
	13550 3750 14250 3750
Wire Wire Line
	14350 3850 14250 3850
Wire Wire Line
	14250 3850 14250 3750
Connection ~ 14250 3750
Wire Wire Line
	14250 3750 14350 3750
Text GLabel 14100 4050 0    50   Input ~ 0
I2C_SDA
Wire Wire Line
	14100 4050 14350 4050
Wire Wire Line
	14100 3950 14350 3950
Text GLabel 9750 2950 2    50   Output ~ 0
BUZZ
Wire Wire Line
	9100 2950 9750 2950
Wire Wire Line
	14950 6100 15300 6100
Wire Wire Line
	14950 6200 15300 6200
Wire Wire Line
	14950 6900 15050 6900
Wire Wire Line
	15050 6900 15050 7000
Connection ~ 15050 7000
Wire Wire Line
	15050 7000 15900 7000
$Comp
L ESP32_S2_mini_1:ESP32_S2_mini_1-ESP32 U2
U 1 1 60C10C23
P 7900 2850
F 0 "U2" H 7900 1561 50  0000 C CNN
F 1 "ESP32_S2_mini_1-ESP32" H 7900 1470 50  0000 C CNN
F 2 "ESP32_S2_MINI_1:ESP32_S2_MINI_1" H 7800 4150 50  0001 C CNN
F 3 "" H 7800 4150 50  0001 C CNN
	1    7900 2850
	1    0    0    -1  
$EndComp
Wire Wire Line
	3650 2350 6700 2350
Wire Wire Line
	8500 4050 8500 5050
Wire Wire Line
	8400 4050 8400 5150
Wire Wire Line
	8150 5050 8500 5050
Connection ~ 8500 5050
Wire Wire Line
	8500 5050 8500 5300
Wire Wire Line
	7850 5050 7850 5150
Wire Wire Line
	7850 5150 8400 5150
Connection ~ 8400 5150
Wire Wire Line
	8400 5150 8400 5300
Wire Wire Line
	7850 4750 7850 4700
Wire Wire Line
	7850 4700 8000 4700
Wire Wire Line
	8150 4700 8150 4750
$Comp
L power:+3V3 #PWR0102
U 1 1 60C9A4D9
P 8000 4700
F 0 "#PWR0102" H 8000 4550 50  0001 C CNN
F 1 "+3V3" H 8015 4873 50  0000 C CNN
F 2 "" H 8000 4700 50  0001 C CNN
F 3 "" H 8000 4700 50  0001 C CNN
	1    8000 4700
	1    0    0    -1  
$EndComp
Connection ~ 8000 4700
Wire Wire Line
	8000 4700 8150 4700
Text GLabel 14200 7000 0    50   Input ~ 0
Line_sensor_1
Text GLabel 14200 6900 0    50   Input ~ 0
Line_sensor_2
Text GLabel 14200 6800 0    50   Input ~ 0
Line_sensor_3
Text GLabel 14200 6700 0    50   Input ~ 0
Line_sensor_4
Wire Wire Line
	13150 6500 14250 6500
Connection ~ 14250 6500
Wire Wire Line
	14200 6700 14450 6700
Wire Wire Line
	14200 6800 14450 6800
Wire Wire Line
	14200 6900 14450 6900
Wire Wire Line
	14200 7000 14450 7000
Text GLabel 6300 3450 0    50   Input ~ 0
Line_sensor_4
Wire Wire Line
	6700 3450 6300 3450
Text GLabel 6300 3350 0    50   Input ~ 0
Line_sensor_3
Text GLabel 6300 3250 0    50   Input ~ 0
Line_sensor_2
Text GLabel 6300 3150 0    50   Input ~ 0
Line_sensor_1
Wire Wire Line
	6700 3150 6300 3150
Wire Wire Line
	6700 3250 6300 3250
Wire Wire Line
	6700 3350 6300 3350
Text GLabel 6300 3550 0    50   Output ~ 0
SPI_CS0
Wire Wire Line
	6700 3550 6300 3550
Text GLabel 7200 4450 3    50   Output ~ 0
SPI_CS1
Wire Wire Line
	7200 4450 7200 4050
Text GLabel 7300 4450 3    50   Output ~ 0
SPI_CLK
Text GLabel 7400 4450 3    50   Output ~ 0
SPI_MOSI
Text GLabel 7500 4450 3    50   Output ~ 0
SPI_MISO
Text GLabel 6250 2950 0    50   Output ~ 0
Line_sensor_EN
Wire Wire Line
	6700 2950 6250 2950
Text GLabel 15100 6700 2    50   Input ~ 0
Line_sensor_EN
Wire Wire Line
	15100 6500 15900 6500
Wire Wire Line
	15100 6700 14950 6700
Text GLabel 15300 6400 2    50   Input ~ 0
SPI_CS0
Text GLabel 15300 6300 2    50   Input ~ 0
SPI_CLK
Wire Wire Line
	14950 6300 15300 6300
Wire Wire Line
	14950 6400 15300 6400
Wire Wire Line
	7300 4450 7300 4050
Wire Wire Line
	7400 4450 7400 4050
Wire Wire Line
	7500 4450 7500 4050
Text GLabel 14150 6400 0    50   Input ~ 0
SPI_CS1
Wire Wire Line
	14450 6400 14150 6400
Text GLabel 14150 6300 0    50   Input ~ 0
SPI_MOSI
Text GLabel 14150 6200 0    50   Input ~ 0
SPI_MISO
Wire Wire Line
	14150 6200 14450 6200
Wire Wire Line
	14450 6300 14150 6300
Text GLabel 6250 2850 0    50   Output ~ 0
Range_sensor_EN
Wire Wire Line
	6700 2850 6250 2850
Text GLabel 15100 6800 2    50   Input ~ 0
Range_sensor_EN
Wire Wire Line
	14950 6800 15100 6800
$EndSCHEMATC
