EESchema Schematic File Version 4
EELAYER 30 0
EELAYER END
$Descr A4 11693 8268
encoding utf-8
Sheet 1 1
Title ""
Date ""
Rev ""
Comp ""
Comment1 ""
Comment2 ""
Comment3 ""
Comment4 ""
$EndDescr
$Comp
L Connector_Generic:Conn_02x05_Odd_Even J1
U 1 1 60748129
P 4300 2450
F 0 "J1" H 4350 2867 50  0000 C CNN
F 1 "To top plate" H 4350 2776 50  0000 C CNN
F 2 "Molex_SlimStack:SlimStack_0.8mm_Male_10" H 4300 2450 50  0001 C CNN
F 3 "~" H 4300 2450 50  0001 C CNN
	1    4300 2450
	1    0    0    -1  
$EndComp
$Comp
L Connector_Generic:Conn_02x05_Odd_Even J2
U 1 1 6074A27E
P 4450 4500
F 0 "J2" H 4500 4917 50  0000 C CNN
F 1 "To bottom plate" H 4500 4826 50  0000 C CNN
F 2 "Molex_SlimStack:SlimStack_0.8mm_Male_10" H 4450 4500 50  0001 C CNN
F 3 "~" H 4450 4500 50  0001 C CNN
	1    4450 4500
	1    0    0    -1  
$EndComp
$Comp
L Device:C C1
U 1 1 6086D65D
P 9300 5450
F 0 "C1" H 9415 5496 50  0000 L CNN
F 1 "100nF" H 9415 5405 50  0000 L CNN
F 2 "Capacitor_SMD:C_0603_1608Metric" H 9338 5300 50  0001 C CNN
F 3 "~" H 9300 5450 50  0001 C CNN
	1    9300 5450
	1    0    0    -1  
$EndComp
$Comp
L power:+3V3 #PWR0101
U 1 1 60870837
P 9300 5150
F 0 "#PWR0101" H 9300 5000 50  0001 C CNN
F 1 "+3V3" H 9315 5323 50  0000 C CNN
F 2 "" H 9300 5150 50  0001 C CNN
F 3 "" H 9300 5150 50  0001 C CNN
	1    9300 5150
	1    0    0    -1  
$EndComp
$Comp
L power:GND #PWR0102
U 1 1 608717A2
P 9300 5700
F 0 "#PWR0102" H 9300 5450 50  0001 C CNN
F 1 "GND" H 9305 5527 50  0000 C CNN
F 2 "" H 9300 5700 50  0001 C CNN
F 3 "" H 9300 5700 50  0001 C CNN
	1    9300 5700
	1    0    0    -1  
$EndComp
Wire Wire Line
	9300 5150 9300 5300
Text GLabel 7150 5300 0    50   Input ~ 0
SPI_CS
$Comp
L TLE5012B:TLE5012B U1
U 1 1 60C4F158
P 8050 5250
F 0 "U1" H 8050 5625 50  0000 C CNN
F 1 "TLE5012B" H 8050 5534 50  0000 C CNN
F 2 "Package_SO:Infineon_PG-DSO-8-43" H 8050 4950 50  0001 C CNN
F 3 "" H 8050 4950 50  0001 C CNN
	1    8050 5250
	1    0    0    -1  
$EndComp
Wire Wire Line
	7150 5400 7250 5400
Wire Wire Line
	7150 5300 7550 5300
Text GLabel 7150 5200 0    50   Input ~ 0
SPI_CLK
Wire Wire Line
	7150 5200 7550 5200
Wire Wire Line
	8550 5300 9300 5300
Connection ~ 9300 5300
Wire Wire Line
	8550 5100 8650 5100
Wire Wire Line
	8650 5100 8650 5200
Wire Wire Line
	8650 5200 8550 5200
Wire Wire Line
	8550 5400 8650 5400
Wire Wire Line
	9300 5600 8650 5600
Wire Wire Line
	8650 5600 8650 5400
Wire Wire Line
	9300 5600 9300 5700
Connection ~ 9300 5600
Connection ~ 8650 5200
Connection ~ 8650 5400
Wire Wire Line
	8650 5400 8650 5200
$Comp
L power:GND #PWR0103
U 1 1 60C5FD82
P 6500 5200
F 0 "#PWR0103" H 6500 4950 50  0001 C CNN
F 1 "GND" H 6505 5027 50  0000 C CNN
F 2 "" H 6500 5200 50  0001 C CNN
F 3 "" H 6500 5200 50  0001 C CNN
	1    6500 5200
	1    0    0    -1  
$EndComp
Wire Wire Line
	6500 5200 6500 5100
$Comp
L power:GND #PWR0104
U 1 1 60C5BCB0
P 5300 4700
F 0 "#PWR0104" H 5300 4450 50  0001 C CNN
F 1 "GND" H 5305 4527 50  0000 C CNN
F 2 "" H 5300 4700 50  0001 C CNN
F 3 "" H 5300 4700 50  0001 C CNN
	1    5300 4700
	1    0    0    -1  
$EndComp
Wire Wire Line
	5300 4700 4850 4700
Wire Wire Line
	4750 4600 4850 4600
Wire Wire Line
	4850 4600 4850 4700
Connection ~ 4850 4700
Wire Wire Line
	4850 4700 4750 4700
$Comp
L power:+3V3 #PWR0105
U 1 1 60C5D4A3
P 5300 4300
F 0 "#PWR0105" H 5300 4150 50  0001 C CNN
F 1 "+3V3" H 5315 4473 50  0000 C CNN
F 2 "" H 5300 4300 50  0001 C CNN
F 3 "" H 5300 4300 50  0001 C CNN
	1    5300 4300
	1    0    0    -1  
$EndComp
Wire Wire Line
	5300 4300 4850 4300
Wire Wire Line
	4750 4400 4850 4400
Wire Wire Line
	4850 4400 4850 4300
Connection ~ 4850 4300
Wire Wire Line
	4850 4300 4750 4300
Text GLabel 4000 4600 0    50   Input ~ 0
SPI_CLK
Text GLabel 4000 4500 0    50   Input ~ 0
SPI_CS
Text GLabel 4000 4400 0    50   Input ~ 0
SPI_MOSI
Text GLabel 4000 4300 0    50   Input ~ 0
SPI_MISO
Wire Wire Line
	4000 4300 4250 4300
Wire Wire Line
	4250 4400 4000 4400
Wire Wire Line
	4000 4500 4250 4500
Wire Wire Line
	4250 4600 4000 4600
Wire Wire Line
	6500 5100 7550 5100
Text GLabel 7150 5400 0    50   Input ~ 0
SPI_MISO
Text GLabel 7150 5500 0    50   Input ~ 0
SPI_MOSI
Wire Wire Line
	7150 5500 7250 5500
Wire Wire Line
	7250 5500 7250 5400
Connection ~ 7250 5400
Wire Wire Line
	7250 5400 7450 5400
$Comp
L Device:R R1
U 1 1 60C897B9
P 7450 5700
F 0 "R1" H 7520 5746 50  0000 L CNN
F 1 "4.7k" H 7520 5655 50  0000 L CNN
F 2 "Resistor_SMD:R_0402_1005Metric" V 7380 5700 50  0001 C CNN
F 3 "~" H 7450 5700 50  0001 C CNN
	1    7450 5700
	1    0    0    -1  
$EndComp
$Comp
L power:+3V3 #PWR0106
U 1 1 60C8A7BA
P 7750 5850
F 0 "#PWR0106" H 7750 5700 50  0001 C CNN
F 1 "+3V3" H 7765 6023 50  0000 C CNN
F 2 "" H 7750 5850 50  0001 C CNN
F 3 "" H 7750 5850 50  0001 C CNN
	1    7750 5850
	1    0    0    -1  
$EndComp
Wire Wire Line
	7450 5550 7450 5400
Connection ~ 7450 5400
Wire Wire Line
	7450 5400 7550 5400
Wire Wire Line
	7450 5850 7750 5850
$EndSCHEMATC
