EESchema Schematic File Version 4
EELAYER 30 0
EELAYER END
$Descr A3 16535 11693
encoding utf-8
Sheet 1 1
Title ""
Date ""
Rev ""
Comp ""
Comment1 ""
Comment2 ""
Comment3 ""
Comment4 ""
$EndDescr
$Comp
L Connector_Generic:Conn_02x10_Odd_Even J1
U 1 1 6071B166
P 1900 3500
F 0 "J1" H 1950 4117 50  0000 C CNN
F 1 "To right plate" H 1950 4026 50  0000 C CNN
F 2 "Molex_SlimStack:SlimStack_0.8mm_Female_RA_20" H 1900 3500 50  0001 C CNN
F 3 "~" H 1900 3500 50  0001 C CNN
	1    1900 3500
	1    0    0    -1  
$EndComp
$Comp
L Connector_Generic:Conn_02x10_Odd_Even J6
U 1 1 6071BF5C
P 5850 3550
F 0 "J6" H 5900 4167 50  0000 C CNN
F 1 "To left plate" H 5900 4076 50  0000 C CNN
F 2 "Molex_SlimStack:SlimStack_0.8mm_Female_RA_20" H 5850 3550 50  0001 C CNN
F 3 "~" H 5850 3550 50  0001 C CNN
	1    5850 3550
	1    0    0    -1  
$EndComp
$Comp
L Connector_Generic:Conn_02x10_Odd_Even J3
U 1 1 6071D008
P 3750 5150
F 0 "J3" H 3800 5767 50  0000 C CNN
F 1 "To back plate" H 3800 5676 50  0000 C CNN
F 2 "Molex_SlimStack:SlimStack_0.8mm_Female_RA_20" H 3750 5150 50  0001 C CNN
F 3 "~" H 3750 5150 50  0001 C CNN
	1    3750 5150
	1    0    0    -1  
$EndComp
$Comp
L Connector_Generic:Conn_02x05_Odd_Even J2
U 1 1 6071E336
P 2350 1800
F 0 "J2" H 2400 2217 50  0000 C CNN
F 1 "To front right plate" H 2400 2126 50  0000 C CNN
F 2 "Molex_SlimStack:SlimStack_0.8mm_Female_RA_10" H 2350 1800 50  0001 C CNN
F 3 "~" H 2350 1800 50  0001 C CNN
	1    2350 1800
	1    0    0    -1  
$EndComp
$Comp
L Connector_Generic:Conn_02x05_Odd_Even J4
U 1 1 6071F8F4
P 3800 1300
F 0 "J4" H 3850 1717 50  0000 C CNN
F 1 "To front center plate" H 3850 1626 50  0000 C CNN
F 2 "Molex_SlimStack:SlimStack_0.8mm_Female_RA_10" H 3800 1300 50  0001 C CNN
F 3 "~" H 3800 1300 50  0001 C CNN
	1    3800 1300
	1    0    0    -1  
$EndComp
$Comp
L Connector_Generic:Conn_02x05_Odd_Even J5
U 1 1 607207B0
P 5250 2050
F 0 "J5" H 5300 2467 50  0000 C CNN
F 1 "To front left plate" H 5300 2376 50  0000 C CNN
F 2 "Molex_SlimStack:SlimStack_0.8mm_Female_RA_10" H 5250 2050 50  0001 C CNN
F 3 "~" H 5250 2050 50  0001 C CNN
	1    5250 2050
	1    0    0    -1  
$EndComp
$Comp
L Connector_Generic:Conn_02x05_Odd_Even J7
U 1 1 607252E7
P 4450 3550
F 0 "J7" H 4500 3967 50  0000 C CNN
F 1 "To right encoder plate" H 4500 3876 50  0000 C CNN
F 2 "Molex_SlimStack:SlimStack_0.8mm_Female_RA_10" H 4450 3550 50  0001 C CNN
F 3 "~" H 4450 3550 50  0001 C CNN
	1    4450 3550
	1    0    0    -1  
$EndComp
$Comp
L Sensor_Motion:MPU-6050 U1
U 1 1 60867EDE
P 11550 3450
F 0 "U1" H 11550 2661 50  0000 C CNN
F 1 "MPU-6050" H 11550 2570 50  0000 C CNN
F 2 "Sensor_Motion:InvenSense_QFN-24_4x4mm_P0.5mm" H 11550 2650 50  0001 C CNN
F 3 "https://store.invensense.com/datasheets/invensense/MPU-6050_DataSheet_V3%204.pdf" H 11550 3300 50  0001 C CNN
	1    11550 3450
	1    0    0    -1  
$EndComp
$Comp
L Connector_Generic:Conn_02x05_Odd_Even J8
U 1 1 6086D142
P 3250 3450
F 0 "J8" H 3300 3867 50  0000 C CNN
F 1 "To left encoder plate" H 3300 3776 50  0000 C CNN
F 2 "Molex_SlimStack:SlimStack_0.8mm_Female_RA_10" H 3250 3450 50  0001 C CNN
F 3 "~" H 3250 3450 50  0001 C CNN
	1    3250 3450
	1    0    0    -1  
$EndComp
$Comp
L Connector:Conn_01x02_Male J9
U 1 1 6087BA58
P 5550 9400
F 0 "J9" H 5658 9581 50  0000 C CNN
F 1 "Batt" H 5658 9490 50  0000 C CNN
F 2 "millibot_specific_footprints:battery_solder_pad" H 5550 9400 50  0001 C CNN
F 3 "~" H 5550 9400 50  0001 C CNN
	1    5550 9400
	-1   0    0    -1  
$EndComp
$Comp
L Battery_Management:MCP73831-2-OT U2
U 1 1 608813DA
P 3450 9500
F 0 "U2" H 3450 9981 50  0000 C CNN
F 1 "MCP73831-2-OT" H 3450 9890 50  0000 C CNN
F 2 "Package_TO_SOT_SMD:SOT-23-5" H 3500 9250 50  0001 L CIN
F 3 "http://ww1.microchip.com/downloads/en/DeviceDoc/20001984g.pdf" H 3300 9450 50  0001 C CNN
	1    3450 9500
	1    0    0    -1  
$EndComp
$Comp
L Device:LED D1
U 1 1 6088D4CD
P 4050 8800
F 0 "D1" H 4043 9017 50  0000 C CNN
F 1 "LED" H 4043 8926 50  0000 C CNN
F 2 "LED_SMD:LED_0805_2012Metric" H 4050 8800 50  0001 C CNN
F 3 "~" H 4050 8800 50  0001 C CNN
	1    4050 8800
	0    1    1    0   
$EndComp
$Comp
L Device:C C1
U 1 1 6088E206
P 2500 9050
F 0 "C1" H 2615 9096 50  0000 L CNN
F 1 "4.7uF" H 2615 9005 50  0000 L CNN
F 2 "Capacitor_SMD:C_0805_2012Metric" H 2538 8900 50  0001 C CNN
F 3 "~" H 2500 9050 50  0001 C CNN
	1    2500 9050
	1    0    0    -1  
$EndComp
$Comp
L Device:C C2
U 1 1 6088EC84
P 4650 9550
F 0 "C2" H 4765 9596 50  0000 L CNN
F 1 "4.7uF" H 4765 9505 50  0000 L CNN
F 2 "Capacitor_SMD:C_0805_2012Metric" H 4688 9400 50  0001 C CNN
F 3 "~" H 4650 9550 50  0001 C CNN
	1    4650 9550
	1    0    0    -1  
$EndComp
$Comp
L Device:R R2
U 1 1 6088F809
P 4050 9100
F 0 "R2" H 4120 9146 50  0000 L CNN
F 1 "1k" H 4120 9055 50  0000 L CNN
F 2 "Resistor_SMD:R_0402_1005Metric" V 3980 9100 50  0001 C CNN
F 3 "~" H 4050 9100 50  0001 C CNN
	1    4050 9100
	-1   0    0    1   
$EndComp
$Comp
L Device:R R1
U 1 1 6088FF65
P 2800 9750
F 0 "R1" H 2870 9796 50  0000 L CNN
F 1 "17k" H 2870 9705 50  0000 L CNN
F 2 "Resistor_SMD:R_0402_1005Metric" V 2730 9750 50  0001 C CNN
F 3 "~" H 2800 9750 50  0001 C CNN
	1    2800 9750
	1    0    0    -1  
$EndComp
$Comp
L power:GND #PWR0101
U 1 1 6089E50B
P 3450 10000
F 0 "#PWR0101" H 3450 9750 50  0001 C CNN
F 1 "GND" H 3455 9827 50  0000 C CNN
F 2 "" H 3450 10000 50  0001 C CNN
F 3 "" H 3450 10000 50  0001 C CNN
	1    3450 10000
	1    0    0    -1  
$EndComp
Wire Wire Line
	2800 9600 3050 9600
Wire Wire Line
	2800 9900 3450 9900
Wire Wire Line
	3450 9900 3450 9800
Wire Wire Line
	3450 10000 3450 9900
Connection ~ 3450 9900
$Comp
L power:+5V #PWR0102
U 1 1 6089F4E5
P 3450 8900
F 0 "#PWR0102" H 3450 8750 50  0001 C CNN
F 1 "+5V" H 3465 9073 50  0000 C CNN
F 2 "" H 3450 8900 50  0001 C CNN
F 3 "" H 3450 8900 50  0001 C CNN
	1    3450 8900
	1    0    0    -1  
$EndComp
Wire Wire Line
	3450 8900 3450 9200
Wire Wire Line
	3850 9400 4650 9400
Wire Wire Line
	2500 8900 3450 8900
Connection ~ 3450 8900
$Comp
L power:GND #PWR0103
U 1 1 608A6255
P 2500 9200
F 0 "#PWR0103" H 2500 8950 50  0001 C CNN
F 1 "GND" H 2505 9027 50  0000 C CNN
F 2 "" H 2500 9200 50  0001 C CNN
F 3 "" H 2500 9200 50  0001 C CNN
	1    2500 9200
	1    0    0    -1  
$EndComp
$Comp
L power:+5V #PWR0104
U 1 1 608A6E15
P 4050 8650
F 0 "#PWR0104" H 4050 8500 50  0001 C CNN
F 1 "+5V" H 4065 8823 50  0000 C CNN
F 2 "" H 4050 8650 50  0001 C CNN
F 3 "" H 4050 8650 50  0001 C CNN
	1    4050 8650
	1    0    0    -1  
$EndComp
$Comp
L power:GND #PWR0105
U 1 1 608A8579
P 4650 9700
F 0 "#PWR0105" H 4650 9450 50  0001 C CNN
F 1 "GND" H 4655 9527 50  0000 C CNN
F 2 "" H 4650 9700 50  0001 C CNN
F 3 "" H 4650 9700 50  0001 C CNN
	1    4650 9700
	1    0    0    -1  
$EndComp
Wire Wire Line
	3850 9600 4050 9600
Wire Wire Line
	4050 9250 4050 9600
Connection ~ 4650 9400
Wire Wire Line
	4650 9400 5350 9400
$Comp
L power:GND #PWR0106
U 1 1 608BE486
P 5250 9550
F 0 "#PWR0106" H 5250 9300 50  0001 C CNN
F 1 "GND" H 5255 9377 50  0000 C CNN
F 2 "" H 5250 9550 50  0001 C CNN
F 3 "" H 5250 9550 50  0001 C CNN
	1    5250 9550
	1    0    0    -1  
$EndComp
Wire Wire Line
	5250 9550 5250 9500
Wire Wire Line
	5250 9500 5350 9500
$Comp
L power:+BATT #PWR0107
U 1 1 6086C74A
P 4650 9150
F 0 "#PWR0107" H 4650 9000 50  0001 C CNN
F 1 "+BATT" H 4665 9323 50  0000 C CNN
F 2 "" H 4650 9150 50  0001 C CNN
F 3 "" H 4650 9150 50  0001 C CNN
	1    4650 9150
	1    0    0    -1  
$EndComp
Wire Wire Line
	4650 9400 4650 9150
$Comp
L Device:C C3
U 1 1 60874998
P 7800 9200
F 0 "C3" H 7915 9246 50  0000 L CNN
F 1 "10uF" H 7915 9155 50  0000 L CNN
F 2 "Capacitor_SMD:C_0805_2012Metric" H 7838 9050 50  0001 C CNN
F 3 "~" H 7800 9200 50  0001 C CNN
	1    7800 9200
	1    0    0    -1  
$EndComp
$Comp
L Device:C C4
U 1 1 60875879
P 10050 9150
F 0 "C4" H 10165 9196 50  0000 L CNN
F 1 "10uF" H 10165 9105 50  0000 L CNN
F 2 "Capacitor_SMD:C_0805_2012Metric" H 10088 9000 50  0001 C CNN
F 3 "~" H 10050 9150 50  0001 C CNN
	1    10050 9150
	1    0    0    -1  
$EndComp
Wire Wire Line
	9300 9000 9500 9000
Wire Wire Line
	7800 9050 8200 9050
$Comp
L power:+BATT #PWR0108
U 1 1 60877D06
P 6950 8950
F 0 "#PWR0108" H 6950 8800 50  0001 C CNN
F 1 "+BATT" H 6965 9123 50  0000 C CNN
F 2 "" H 6950 8950 50  0001 C CNN
F 3 "" H 6950 8950 50  0001 C CNN
	1    6950 8950
	1    0    0    -1  
$EndComp
$Comp
L power:GND #PWR0109
U 1 1 608792A0
P 8900 9800
F 0 "#PWR0109" H 8900 9550 50  0001 C CNN
F 1 "GND" H 8905 9627 50  0000 C CNN
F 2 "" H 8900 9800 50  0001 C CNN
F 3 "" H 8900 9800 50  0001 C CNN
	1    8900 9800
	1    0    0    -1  
$EndComp
Wire Wire Line
	7800 9350 7800 9700
Wire Wire Line
	8900 9700 8900 9800
Wire Wire Line
	8900 9550 8900 9700
Connection ~ 8900 9700
Wire Wire Line
	8900 9700 10050 9700
Wire Wire Line
	10050 9700 10050 9300
Wire Wire Line
	6950 8950 6950 9050
Wire Wire Line
	9300 9150 9500 9150
Wire Wire Line
	9500 9150 9500 9000
Connection ~ 9500 9000
Wire Wire Line
	9500 9000 10050 9000
$Comp
L power:+3V3 #PWR0110
U 1 1 6087CDD9
P 10050 8900
F 0 "#PWR0110" H 10050 8750 50  0001 C CNN
F 1 "+3V3" H 10065 9073 50  0000 C CNN
F 2 "" H 10050 8900 50  0001 C CNN
F 3 "" H 10050 8900 50  0001 C CNN
	1    10050 8900
	1    0    0    -1  
$EndComp
Wire Wire Line
	10050 8900 10050 9000
$Comp
L LD39200:LD39200 U3
U 1 1 60873770
P 8900 9150
F 0 "U3" H 8900 9615 50  0000 C CNN
F 1 "LD39200" H 8900 9524 50  0000 C CNN
F 2 "Package_DFN_QFN:DFN-6-1EP_3x3mm_P0.95mm_EP1.7x2.6mm" H 8900 9600 50  0001 C CNN
F 3 "" H 8900 9600 50  0001 C CNN
	1    8900 9150
	1    0    0    -1  
$EndComp
$Comp
L Device:R R3
U 1 1 6087F4EB
P 8200 9200
F 0 "R3" H 8270 9246 50  0000 L CNN
F 1 "10k" H 8270 9155 50  0000 L CNN
F 2 "Resistor_SMD:R_0402_1005Metric" V 8130 9200 50  0001 C CNN
F 3 "~" H 8200 9200 50  0001 C CNN
	1    8200 9200
	1    0    0    -1  
$EndComp
Connection ~ 8200 9050
Wire Wire Line
	7800 9700 8900 9700
Wire Wire Line
	8200 9050 8500 9050
Wire Wire Line
	8200 9350 8450 9350
Wire Wire Line
	8450 9350 8450 9250
Wire Wire Line
	8450 9250 8500 9250
$Comp
L Device:C C6
U 1 1 608AEF22
P 11950 2400
F 0 "C6" H 12065 2446 50  0000 L CNN
F 1 "0.1uF" H 12065 2355 50  0000 L CNN
F 2 "Capacitor_SMD:C_0805_2012Metric" H 11988 2250 50  0001 C CNN
F 3 "~" H 11950 2400 50  0001 C CNN
	1    11950 2400
	1    0    0    -1  
$EndComp
$Comp
L Device:C C8
U 1 1 608AF8A1
P 13000 3800
F 0 "C8" H 13115 3846 50  0000 L CNN
F 1 "2.2nF" H 13115 3755 50  0000 L CNN
F 2 "Capacitor_SMD:C_0805_2012Metric" H 13038 3650 50  0001 C CNN
F 3 "~" H 13000 3800 50  0001 C CNN
	1    13000 3800
	1    0    0    -1  
$EndComp
$Comp
L Device:C C7
U 1 1 608B02F0
P 12600 3900
F 0 "C7" H 12715 3946 50  0000 L CNN
F 1 "0.1uF" H 12715 3855 50  0000 L CNN
F 2 "Capacitor_SMD:C_0805_2012Metric" H 12638 3750 50  0001 C CNN
F 3 "~" H 12600 3900 50  0001 C CNN
	1    12600 3900
	1    0    0    -1  
$EndComp
$Comp
L Device:C C5
U 1 1 608B0B78
P 11000 2400
F 0 "C5" H 11115 2446 50  0000 L CNN
F 1 "0.01uF" H 11115 2355 50  0000 L CNN
F 2 "Capacitor_SMD:C_0805_2012Metric" H 11038 2250 50  0001 C CNN
F 3 "~" H 11000 2400 50  0001 C CNN
	1    11000 2400
	1    0    0    -1  
$EndComp
$Comp
L power:GND #PWR0111
U 1 1 608B25B1
P 11950 2550
F 0 "#PWR0111" H 11950 2300 50  0001 C CNN
F 1 "GND" H 11955 2377 50  0000 C CNN
F 2 "" H 11950 2550 50  0001 C CNN
F 3 "" H 11950 2550 50  0001 C CNN
	1    11950 2550
	1    0    0    -1  
$EndComp
Wire Wire Line
	11650 2750 11650 2150
Wire Wire Line
	11650 2150 11800 2150
Wire Wire Line
	11950 2150 11950 2250
$Comp
L power:+3V3 #PWR0112
U 1 1 608B41EE
P 11800 2050
F 0 "#PWR0112" H 11800 1900 50  0001 C CNN
F 1 "+3V3" H 11815 2223 50  0000 C CNN
F 2 "" H 11800 2050 50  0001 C CNN
F 3 "" H 11800 2050 50  0001 C CNN
	1    11800 2050
	1    0    0    -1  
$EndComp
Wire Wire Line
	11800 2050 11800 2150
Wire Wire Line
	11800 2150 11950 2150
Connection ~ 11800 2150
$Comp
L power:GND #PWR0113
U 1 1 608B9345
P 11550 4500
F 0 "#PWR0113" H 11550 4250 50  0001 C CNN
F 1 "GND" H 11555 4327 50  0000 C CNN
F 2 "" H 11550 4500 50  0001 C CNN
F 3 "" H 11550 4500 50  0001 C CNN
	1    11550 4500
	1    0    0    -1  
$EndComp
Wire Wire Line
	12250 3750 12600 3750
Wire Wire Line
	12250 3650 13000 3650
Wire Wire Line
	11550 4150 11550 4500
Wire Wire Line
	13000 4100 13000 3950
$Comp
L power:GND #PWR0114
U 1 1 608C06C0
P 12800 4150
F 0 "#PWR0114" H 12800 3900 50  0001 C CNN
F 1 "GND" H 12805 3977 50  0000 C CNN
F 2 "" H 12800 4150 50  0001 C CNN
F 3 "" H 12800 4150 50  0001 C CNN
	1    12800 4150
	1    0    0    -1  
$EndComp
Wire Wire Line
	12600 4050 12600 4100
Wire Wire Line
	12600 4100 12800 4100
Wire Wire Line
	12800 4150 12800 4100
Connection ~ 12800 4100
Wire Wire Line
	12800 4100 13000 4100
Wire Wire Line
	10850 3750 10700 3750
$Comp
L power:GND #PWR0115
U 1 1 608C6EC4
P 10500 3850
F 0 "#PWR0115" H 10500 3600 50  0001 C CNN
F 1 "GND" H 10505 3677 50  0000 C CNN
F 2 "" H 10500 3850 50  0001 C CNN
F 3 "" H 10500 3850 50  0001 C CNN
	1    10500 3850
	1    0    0    -1  
$EndComp
Wire Wire Line
	11450 2750 11450 2150
Wire Wire Line
	11450 2150 11650 2150
Connection ~ 11650 2150
Wire Wire Line
	10850 3650 10700 3650
Wire Wire Line
	10700 3650 10700 3750
Connection ~ 10700 3750
Wire Wire Line
	10700 3750 10500 3750
Wire Wire Line
	10500 3850 10500 3750
Connection ~ 10500 3750
Wire Wire Line
	11000 2150 11450 2150
Connection ~ 11450 2150
$Comp
L power:GND #PWR0116
U 1 1 608DE2DC
P 11000 2550
F 0 "#PWR0116" H 11000 2300 50  0001 C CNN
F 1 "GND" H 11005 2377 50  0000 C CNN
F 2 "" H 11000 2550 50  0001 C CNN
F 3 "" H 11000 2550 50  0001 C CNN
	1    11000 2550
	1    0    0    -1  
$EndComp
Wire Wire Line
	11000 2250 11000 2150
Text GLabel 10700 3150 0    50   Input ~ 0
I2C_SDA
Text GLabel 10700 3250 0    50   Input ~ 0
I2C_SCL
Text Label 11250 1650 0    200  ~ 40
IMU
Text Label 8600 8400 0    200  ~ 40
LDO
Text Label 2700 8150 0    200  ~ 40
CHARGER
$Comp
L Device:R 0x69
U 1 1 608C3793
P 10050 3200
F 0 "0x69" H 10120 3246 50  0000 L CNN
F 1 "10k" H 10120 3155 50  0000 L CNN
F 2 "Resistor_SMD:R_0402_1005Metric" V 9980 3200 50  0001 C CNN
F 3 "~" H 10050 3200 50  0001 C CNN
	1    10050 3200
	1    0    0    -1  
$EndComp
$Comp
L Device:R 0x68
U 1 1 608C4EC3
P 10050 3500
F 0 "0x68" H 10120 3546 50  0000 L CNN
F 1 "10k" H 10120 3455 50  0000 L CNN
F 2 "Resistor_SMD:R_0402_1005Metric" V 9980 3500 50  0001 C CNN
F 3 "~" H 10050 3500 50  0001 C CNN
	1    10050 3500
	1    0    0    -1  
$EndComp
Wire Wire Line
	10850 3350 10050 3350
Wire Wire Line
	10050 3650 10050 3750
$Comp
L power:+3V3 #PWR0117
U 1 1 608D48AF
P 10050 2950
F 0 "#PWR0117" H 10050 2800 50  0001 C CNN
F 1 "+3V3" H 10065 3123 50  0000 C CNN
F 2 "" H 10050 2950 50  0001 C CNN
F 3 "" H 10050 2950 50  0001 C CNN
	1    10050 2950
	1    0    0    -1  
$EndComp
Wire Wire Line
	10050 2950 10050 3050
$Comp
L Switch:SW_SPST SW1
U 1 1 608C7E7A
P 7300 9050
F 0 "SW1" H 7300 9285 50  0000 C CNN
F 1 "SW_SPST" H 7300 9194 50  0000 C CNN
F 2 "millibot_specific_footprints:JS102011SAQN" H 7300 9050 50  0001 C CNN
F 3 "~" H 7300 9050 50  0001 C CNN
	1    7300 9050
	1    0    0    -1  
$EndComp
Connection ~ 10050 9000
Wire Wire Line
	6950 9050 7100 9050
Wire Wire Line
	7500 9050 7800 9050
Connection ~ 7800 9050
$Comp
L power:GND #PWR0118
U 1 1 609E7C27
P 4600 5150
F 0 "#PWR0118" H 4600 4900 50  0001 C CNN
F 1 "GND" H 4605 4977 50  0000 C CNN
F 2 "" H 4600 5150 50  0001 C CNN
F 3 "" H 4600 5150 50  0001 C CNN
	1    4600 5150
	1    0    0    -1  
$EndComp
$Comp
L power:GND #PWR0119
U 1 1 609E8719
P 2350 5150
F 0 "#PWR0119" H 2350 4900 50  0001 C CNN
F 1 "GND" H 2355 4977 50  0000 C CNN
F 2 "" H 2350 5150 50  0001 C CNN
F 3 "" H 2350 5150 50  0001 C CNN
	1    2350 5150
	1    0    0    -1  
$EndComp
$Comp
L power:+3V3 #PWR0120
U 1 1 609E93AF
P 3200 4750
F 0 "#PWR0120" H 3200 4600 50  0001 C CNN
F 1 "+3V3" H 3215 4923 50  0000 C CNN
F 2 "" H 3200 4750 50  0001 C CNN
F 3 "" H 3200 4750 50  0001 C CNN
	1    3200 4750
	1    0    0    -1  
$EndComp
Wire Wire Line
	3550 5150 3450 5150
Wire Wire Line
	3550 5250 3450 5250
Wire Wire Line
	3450 5250 3450 5150
$Comp
L power:+5V #PWR0121
U 1 1 60A0CFC7
P 2550 4950
F 0 "#PWR0121" H 2550 4800 50  0001 C CNN
F 1 "+5V" H 2565 5123 50  0000 C CNN
F 2 "" H 2550 4950 50  0001 C CNN
F 3 "" H 2550 4950 50  0001 C CNN
	1    2550 4950
	1    0    0    -1  
$EndComp
Connection ~ 10050 3350
Wire Wire Line
	10050 3750 10500 3750
Wire Wire Line
	2350 5150 3450 5150
Connection ~ 3450 5150
Wire Wire Line
	3550 4950 3450 4950
Wire Wire Line
	3550 4750 3450 4750
Wire Wire Line
	3550 4850 3450 4850
Wire Wire Line
	3450 4850 3450 4750
Connection ~ 3450 4750
Wire Wire Line
	3450 4750 3200 4750
Wire Wire Line
	3550 5050 3450 5050
Wire Wire Line
	3450 5050 3450 4950
Connection ~ 3450 4950
Wire Wire Line
	3450 4950 2550 4950
Wire Wire Line
	4050 5150 4150 5150
Wire Wire Line
	4050 5250 4150 5250
Wire Wire Line
	4150 5250 4150 5150
Connection ~ 4150 5150
Wire Wire Line
	4150 5150 4600 5150
Text GLabel 7800 8800 1    50   Output ~ 0
Vmot
Wire Wire Line
	7800 9050 7800 8800
Text GLabel 3100 5350 0    50   Input ~ 0
I2C_SCL
Text GLabel 3100 5450 0    50   Input ~ 0
I2C_SDA
Wire Wire Line
	3550 5350 3100 5350
Wire Wire Line
	3550 5450 3100 5450
Text GLabel 6450 4050 2    50   Input ~ 0
Vmot
$Comp
L Device:Speaker_Crystal LS1
U 1 1 60C0103A
P 11700 6000
F 0 "LS1" H 11875 5996 50  0000 L CNN
F 1 "Speaker_Crystal" H 11875 5905 50  0000 L CNN
F 2 "millibot_specific_footprints:LPT9018BS" H 11665 5950 50  0001 C CNN
F 3 "~" H 11665 5950 50  0001 C CNN
	1    11700 6000
	1    0    0    -1  
$EndComp
Text GLabel 11100 6000 0    50   Input ~ 0
BUZZ
Wire Wire Line
	11100 6000 11500 6000
$Comp
L power:GND #PWR0122
U 1 1 60C05552
P 11250 6100
F 0 "#PWR0122" H 11250 5850 50  0001 C CNN
F 1 "GND" H 11255 5927 50  0000 C CNN
F 2 "" H 11250 6100 50  0001 C CNN
F 3 "" H 11250 6100 50  0001 C CNN
	1    11250 6100
	1    0    0    -1  
$EndComp
Wire Wire Line
	11500 6100 11250 6100
Wire Wire Line
	6450 4050 6250 4050
Wire Wire Line
	6150 3950 6250 3950
Wire Wire Line
	6250 3950 6250 4050
Connection ~ 6250 4050
Wire Wire Line
	6250 4050 6150 4050
Text GLabel 2500 4000 2    50   Input ~ 0
Vmot
Wire Wire Line
	2500 4000 2300 4000
Wire Wire Line
	2200 3900 2300 3900
Wire Wire Line
	2300 3900 2300 4000
Connection ~ 2300 4000
Wire Wire Line
	2300 4000 2200 4000
Text GLabel 4450 4750 2    50   Output ~ 0
BUZZ
Wire Wire Line
	4050 4750 4450 4750
$Comp
L power:+3V3 #PWR0123
U 1 1 60C76C29
P 4500 1500
F 0 "#PWR0123" H 4500 1350 50  0001 C CNN
F 1 "+3V3" H 4515 1673 50  0000 C CNN
F 2 "" H 4500 1500 50  0001 C CNN
F 3 "" H 4500 1500 50  0001 C CNN
	1    4500 1500
	1    0    0    -1  
$EndComp
Wire Wire Line
	4100 1500 4200 1500
Wire Wire Line
	4100 1400 4200 1400
Wire Wire Line
	4200 1400 4200 1500
Connection ~ 4200 1500
Wire Wire Line
	4200 1500 4500 1500
$Comp
L power:+3V3 #PWR0124
U 1 1 60C7FB1D
P 3050 2000
F 0 "#PWR0124" H 3050 1850 50  0001 C CNN
F 1 "+3V3" H 3065 2173 50  0000 C CNN
F 2 "" H 3050 2000 50  0001 C CNN
F 3 "" H 3050 2000 50  0001 C CNN
	1    3050 2000
	1    0    0    -1  
$EndComp
Wire Wire Line
	2650 2000 2750 2000
Wire Wire Line
	2650 1900 2750 1900
Wire Wire Line
	2750 1900 2750 2000
Connection ~ 2750 2000
Wire Wire Line
	2750 2000 3050 2000
$Comp
L power:+3V3 #PWR0125
U 1 1 60C8D301
P 5950 2250
F 0 "#PWR0125" H 5950 2100 50  0001 C CNN
F 1 "+3V3" H 5965 2423 50  0000 C CNN
F 2 "" H 5950 2250 50  0001 C CNN
F 3 "" H 5950 2250 50  0001 C CNN
	1    5950 2250
	1    0    0    -1  
$EndComp
Wire Wire Line
	5550 2250 5650 2250
Wire Wire Line
	5550 2150 5650 2150
Wire Wire Line
	5650 2150 5650 2250
Connection ~ 5650 2250
Wire Wire Line
	5650 2250 5950 2250
Wire Wire Line
	4050 5350 4150 5350
Wire Wire Line
	4150 5350 4150 5250
Connection ~ 4150 5250
Wire Wire Line
	4050 5450 4150 5450
Wire Wire Line
	4150 5450 4150 5350
Connection ~ 4150 5350
Wire Wire Line
	4050 5550 4150 5550
Wire Wire Line
	4150 5550 4150 5450
Connection ~ 4150 5450
Wire Wire Line
	4050 5650 4150 5650
Wire Wire Line
	4150 5650 4150 5550
Connection ~ 4150 5550
$Comp
L power:GND #PWR0126
U 1 1 60CA4F6A
P 1700 2000
F 0 "#PWR0126" H 1700 1750 50  0001 C CNN
F 1 "GND" H 1705 1827 50  0000 C CNN
F 2 "" H 1700 2000 50  0001 C CNN
F 3 "" H 1700 2000 50  0001 C CNN
	1    1700 2000
	1    0    0    -1  
$EndComp
Wire Wire Line
	1700 2000 2050 2000
Wire Wire Line
	2150 1900 2050 1900
Wire Wire Line
	2050 1900 2050 2000
Connection ~ 2050 2000
Wire Wire Line
	2050 2000 2150 2000
$Comp
L power:GND #PWR0127
U 1 1 60CB30A2
P 3150 1500
F 0 "#PWR0127" H 3150 1250 50  0001 C CNN
F 1 "GND" H 3155 1327 50  0000 C CNN
F 2 "" H 3150 1500 50  0001 C CNN
F 3 "" H 3150 1500 50  0001 C CNN
	1    3150 1500
	1    0    0    -1  
$EndComp
Wire Wire Line
	3150 1500 3500 1500
Wire Wire Line
	3600 1400 3500 1400
Wire Wire Line
	3500 1400 3500 1500
Connection ~ 3500 1500
Wire Wire Line
	3500 1500 3600 1500
$Comp
L power:GND #PWR0128
U 1 1 60CB7F1A
P 4600 2250
F 0 "#PWR0128" H 4600 2000 50  0001 C CNN
F 1 "GND" H 4605 2077 50  0000 C CNN
F 2 "" H 4600 2250 50  0001 C CNN
F 3 "" H 4600 2250 50  0001 C CNN
	1    4600 2250
	1    0    0    -1  
$EndComp
Wire Wire Line
	4600 2250 4950 2250
Wire Wire Line
	5050 2150 4950 2150
Wire Wire Line
	4950 2150 4950 2250
Connection ~ 4950 2250
Wire Wire Line
	4950 2250 5050 2250
Wire Wire Line
	10700 3150 10850 3150
Wire Wire Line
	10850 3250 10700 3250
$Comp
L power:GND #PWR0129
U 1 1 60C54D27
P 1250 3200
F 0 "#PWR0129" H 1250 2950 50  0001 C CNN
F 1 "GND" H 1255 3027 50  0000 C CNN
F 2 "" H 1250 3200 50  0001 C CNN
F 3 "" H 1250 3200 50  0001 C CNN
	1    1250 3200
	1    0    0    -1  
$EndComp
Wire Wire Line
	1250 3200 1600 3200
Wire Wire Line
	1700 3100 1600 3100
Wire Wire Line
	1600 3100 1600 3200
Connection ~ 1600 3200
Wire Wire Line
	1600 3200 1700 3200
$Comp
L power:GND #PWR0130
U 1 1 60C5A874
P 5200 3250
F 0 "#PWR0130" H 5200 3000 50  0001 C CNN
F 1 "GND" H 5205 3077 50  0000 C CNN
F 2 "" H 5200 3250 50  0001 C CNN
F 3 "" H 5200 3250 50  0001 C CNN
	1    5200 3250
	1    0    0    -1  
$EndComp
Wire Wire Line
	5200 3250 5550 3250
Wire Wire Line
	5650 3150 5550 3150
Wire Wire Line
	5550 3150 5550 3250
Connection ~ 5550 3250
Wire Wire Line
	5550 3250 5650 3250
$EndSCHEMATC
