EESchema Schematic File Version 4
EELAYER 30 0
EELAYER END
$Descr A3 16535 11693
encoding utf-8
Sheet 1 1
Title ""
Date ""
Rev ""
Comp ""
Comment1 ""
Comment2 ""
Comment3 ""
Comment4 ""
$EndDescr
$Comp
L Connector_Generic:Conn_02x10_Odd_Even J1
U 1 1 6076CE6B
P 3800 2250
F 0 "J1" V 3896 1662 50  0000 R CNN
F 1 "To top plate" V 3805 1662 50  0000 R CNN
F 2 "Molex_SlimStack:SlimStack_0.8mm_Male_20" H 3800 2250 50  0001 C CNN
F 3 "~" H 3800 2250 50  0001 C CNN
	1    3800 2250
	1    0    0    -1  
$EndComp
$Comp
L Connector_Generic:Conn_02x10_Odd_Even J2
U 1 1 60770479
P 3750 4150
F 0 "J2" V 3846 3562 50  0000 R CNN
F 1 "To bottom plate" V 3755 3562 50  0000 R CNN
F 2 "Molex_SlimStack:SlimStack_0.8mm_Male_20" H 3750 4150 50  0001 C CNN
F 3 "~" H 3750 4150 50  0001 C CNN
	1    3750 4150
	1    0    0    -1  
$EndComp
$Comp
L DRV8830:DRV8830DGQ U1
U 1 1 6086BE27
P 4000 9700
F 0 "U1" H 5400 10087 60  0000 C CNN
F 1 "DRV8830DGQ" H 5400 9981 60  0000 C CNN
F 2 "millibot-sensors:DRV8830DGQ" H 5400 9940 60  0001 C CNN
F 3 "" H 4000 9700 60  0000 C CNN
	1    4000 9700
	1    0    0    -1  
$EndComp
$Comp
L Device:C C1
U 1 1 6086CA88
P 2450 10150
F 0 "C1" H 2565 10196 50  0000 L CNN
F 1 "10uF" H 2565 10105 50  0000 L CNN
F 2 "Capacitor_SMD:C_0603_1608Metric" H 2488 10000 50  0001 C CNN
F 3 "~" H 2450 10150 50  0001 C CNN
	1    2450 10150
	1    0    0    -1  
$EndComp
$Comp
L power:GND #PWR0101
U 1 1 6086FB80
P 2450 10350
F 0 "#PWR0101" H 2450 10100 50  0001 C CNN
F 1 "GND" H 2455 10177 50  0000 C CNN
F 2 "" H 2450 10350 50  0001 C CNN
F 3 "" H 2450 10350 50  0001 C CNN
	1    2450 10350
	1    0    0    -1  
$EndComp
Wire Wire Line
	2450 10000 2450 9900
Connection ~ 2450 10000
Wire Wire Line
	2450 10300 2450 10350
Wire Wire Line
	3450 10300 3450 10100
Wire Wire Line
	3450 10100 4000 10100
Connection ~ 2450 10300
Text Notes 3350 9450 0    50   ~ 0
R_Isense = 200mV / I_Limit[mA]\n0<R<1 OHM
Text GLabel 3750 9700 0    50   Output ~ 0
MOT_1
Text GLabel 3750 9900 0    50   Output ~ 0
MOT_2
Wire Wire Line
	4000 9900 3750 9900
Wire Wire Line
	4000 9700 3750 9700
$Comp
L Device:R R1
U 1 1 60873770
P 3150 9800
F 0 "R1" V 3357 9800 50  0000 C CNN
F 1 "1" V 3266 9800 50  0000 C CNN
F 2 "Resistor_SMD:R_0402_1005Metric" V 3080 9800 50  0001 C CNN
F 3 "~" H 3150 9800 50  0001 C CNN
	1    3150 9800
	0    -1   -1   0   
$EndComp
Wire Wire Line
	2450 10000 4000 10000
Wire Wire Line
	2450 10300 2900 10300
Wire Wire Line
	3000 9800 2900 9800
Wire Wire Line
	2900 9800 2900 10300
Connection ~ 2900 10300
Wire Wire Line
	2900 10300 3450 10300
Wire Wire Line
	3300 9800 4000 9800
Text GLabel 6900 9800 2    50   Input ~ 0
SCL
Text GLabel 6900 9900 2    50   Input ~ 0
SDA
Wire Wire Line
	6800 10200 6900 10200
Wire Wire Line
	6800 9900 6900 9900
Wire Wire Line
	6800 9800 6900 9800
$Comp
L power:GND #PWR0102
U 1 1 608806C3
P 8300 10600
F 0 "#PWR0102" H 8300 10350 50  0001 C CNN
F 1 "GND" H 8305 10427 50  0000 C CNN
F 2 "" H 8300 10600 50  0001 C CNN
F 3 "" H 8300 10600 50  0001 C CNN
	1    8300 10600
	1    0    0    -1  
$EndComp
Text GLabel 6900 10200 2    50   Output ~ 0
FAULT
$Comp
L Device:R A1-H1
U 1 1 6088F35D
P 7800 9750
F 0 "A1-H1" H 7870 9796 50  0000 L CNN
F 1 "10k" H 7870 9705 50  0000 L CNN
F 2 "Resistor_SMD:R_0402_1005Metric" V 7730 9750 50  0001 C CNN
F 3 "~" H 7800 9750 50  0001 C CNN
	1    7800 9750
	1    0    0    -1  
$EndComp
$Comp
L Device:R A0-H1
U 1 1 60893870
P 8800 9750
F 0 "A0-H1" H 8870 9796 50  0000 L CNN
F 1 "10k" H 8870 9705 50  0000 L CNN
F 2 "Resistor_SMD:R_0402_1005Metric" V 8730 9750 50  0001 C CNN
F 3 "~" H 8800 9750 50  0001 C CNN
	1    8800 9750
	1    0    0    -1  
$EndComp
$Comp
L Device:R A1-L1
U 1 1 608940A1
P 7800 10350
F 0 "A1-L1" H 7870 10396 50  0000 L CNN
F 1 "10k" H 7870 10305 50  0000 L CNN
F 2 "Resistor_SMD:R_0402_1005Metric" V 7730 10350 50  0001 C CNN
F 3 "~" H 7800 10350 50  0001 C CNN
	1    7800 10350
	1    0    0    -1  
$EndComp
$Comp
L Device:R A0-L1
U 1 1 6089431A
P 8800 10350
F 0 "A0-L1" H 8870 10396 50  0000 L CNN
F 1 "10k" H 8870 10305 50  0000 L CNN
F 2 "Resistor_SMD:R_0402_1005Metric" V 8730 10350 50  0001 C CNN
F 3 "~" H 8800 10350 50  0001 C CNN
	1    8800 10350
	1    0    0    -1  
$EndComp
Wire Wire Line
	7800 10000 7800 9900
Wire Wire Line
	7800 10200 7800 10000
Connection ~ 7800 10000
Wire Wire Line
	8800 10100 8800 10200
Wire Wire Line
	8800 10100 8800 9900
Connection ~ 8800 10100
Wire Wire Line
	8300 10500 8300 10600
Connection ~ 7800 10500
Wire Wire Line
	6800 9700 7200 9700
Wire Wire Line
	7200 9700 7200 10500
Wire Wire Line
	7200 10500 7800 10500
$Comp
L power:+BATT #PWR0103
U 1 1 6089CDB8
P 2450 9900
F 0 "#PWR0103" H 2450 9750 50  0001 C CNN
F 1 "+BATT" H 2465 10073 50  0000 C CNN
F 2 "" H 2450 9900 50  0001 C CNN
F 3 "" H 2450 9900 50  0001 C CNN
	1    2450 9900
	1    0    0    -1  
$EndComp
$Comp
L power:+BATT #PWR0104
U 1 1 6089E33F
P 8300 9400
F 0 "#PWR0104" H 8300 9250 50  0001 C CNN
F 1 "+BATT" H 8315 9573 50  0000 C CNN
F 2 "" H 8300 9400 50  0001 C CNN
F 3 "" H 8300 9400 50  0001 C CNN
	1    8300 9400
	1    0    0    -1  
$EndComp
Wire Wire Line
	8300 9400 8300 9600
Wire Wire Line
	7800 10500 8300 10500
Connection ~ 8300 9600
Wire Wire Line
	8300 9600 8800 9600
Wire Wire Line
	7800 9600 8300 9600
Connection ~ 8300 10500
Wire Wire Line
	8300 10500 8800 10500
Wire Wire Line
	6800 10000 7800 10000
Wire Wire Line
	6800 10100 8800 10100
$Comp
L power:+BATT #PWR0105
U 1 1 60C4F891
P 4300 2750
F 0 "#PWR0105" H 4300 2600 50  0001 C CNN
F 1 "+BATT" H 4315 2923 50  0000 C CNN
F 2 "" H 4300 2750 50  0001 C CNN
F 3 "" H 4300 2750 50  0001 C CNN
	1    4300 2750
	0    1    1    0   
$EndComp
Wire Wire Line
	4100 2750 4200 2750
Wire Wire Line
	4100 2650 4200 2650
Wire Wire Line
	4200 2650 4200 2750
Connection ~ 4200 2750
Wire Wire Line
	4200 2750 4300 2750
Wire Wire Line
	3600 1950 3500 1950
Wire Wire Line
	3500 1950 3500 1850
Wire Wire Line
	3500 1850 3600 1850
Connection ~ 3500 1850
Wire Wire Line
	2850 1850 3500 1850
$Comp
L power:GND #PWR0106
U 1 1 60C55942
P 2850 1850
F 0 "#PWR0106" H 2850 1600 50  0001 C CNN
F 1 "GND" H 2855 1677 50  0000 C CNN
F 2 "" H 2850 1850 50  0001 C CNN
F 3 "" H 2850 1850 50  0001 C CNN
	1    2850 1850
	1    0    0    -1  
$EndComp
Wire Wire Line
	3550 4250 3450 4250
Wire Wire Line
	3450 4250 3450 4150
Wire Wire Line
	3450 4150 3550 4150
Connection ~ 3450 4150
Wire Wire Line
	2800 4150 3450 4150
$Comp
L power:GND #PWR0107
U 1 1 60C52947
P 2800 4150
F 0 "#PWR0107" H 2800 3900 50  0001 C CNN
F 1 "GND" H 2805 3977 50  0000 C CNN
F 2 "" H 2800 4150 50  0001 C CNN
F 3 "" H 2800 4150 50  0001 C CNN
	1    2800 4150
	1    0    0    -1  
$EndComp
Wire Wire Line
	4150 4150 4800 4150
Wire Wire Line
	4150 4150 4150 4250
Wire Wire Line
	4150 4250 4050 4250
Wire Wire Line
	4050 4150 4150 4150
Connection ~ 4150 4150
$Comp
L power:GND #PWR0108
U 1 1 60C55B83
P 4800 4150
F 0 "#PWR0108" H 4800 3900 50  0001 C CNN
F 1 "GND" H 4805 3977 50  0000 C CNN
F 2 "" H 4800 4150 50  0001 C CNN
F 3 "" H 4800 4150 50  0001 C CNN
	1    4800 4150
	1    0    0    -1  
$EndComp
Text GLabel 3300 4550 0    50   Input ~ 0
SCL
Text GLabel 3300 4650 0    50   Input ~ 0
SDA
Wire Wire Line
	3300 4550 3550 4550
Wire Wire Line
	3300 4650 3550 4650
$Comp
L Connector:Conn_01x02_Female J3
U 1 1 60C8BBAE
P 13800 7800
F 0 "J3" H 13828 7776 50  0000 L CNN
F 1 "Conn_01x02_Female" H 13828 7685 50  0000 L CNN
F 2 "millibot-sensors:battery_solder_pad" H 13800 7800 50  0001 C CNN
F 3 "~" H 13800 7800 50  0001 C CNN
	1    13800 7800
	1    0    0    -1  
$EndComp
Text GLabel 13250 7800 0    50   Input ~ 0
MOT_1
Text GLabel 13250 7900 0    50   Input ~ 0
MOT_2
Wire Wire Line
	13250 7800 13600 7800
Wire Wire Line
	13250 7900 13600 7900
$EndSCHEMATC
