(module SlimStack_0.8mm_Female_10 (layer F.Cu) (tedit 60C4FBC5)
  (fp_text reference REF** (at 0 -4.4) (layer F.SilkS)
    (effects (font (size 1 1) (thickness 0.15)))
  )
  (fp_text value SlimStack_0.8mm_Female_10 (at 0 4.4) (layer F.Fab)
    (effects (font (size 1 1) (thickness 0.15)))
  )
  (fp_line (start -2.9 2.05) (end 2.9 2.05) (layer F.Fab) (width 0.12))
  (fp_line (start 2.9 -1.25) (end 2.9 2.05) (layer F.SilkS) (width 0.24))
  (fp_line (start -2.9 -2.05) (end 2.1 -2.05) (layer F.Fab) (width 0.12))
  (fp_line (start 2.1 -2.05) (end 2.9 -1.25) (layer F.SilkS) (width 0.24))
  (fp_line (start -2.9 2.05) (end -2.9 -2) (layer F.SilkS) (width 0.24))
  (fp_line (start -2.9 2.05) (end -2.9 -2) (layer F.Fab) (width 0.12))
  (fp_line (start 2.9 -1.25) (end 2.9 2.05) (layer F.Fab) (width 0.12))
  (fp_line (start 2.1 -2.05) (end 2.9 -1.25) (layer F.Fab) (width 0.12))
  (pad 1 smd rect (at 1.6 -2.15) (size 0.55 1.8) (layers F.Cu F.Paste F.Mask))
  (pad 2 smd rect (at 1.6 2.15) (size 0.55 1.8) (layers F.Cu F.Paste F.Mask))
  (pad 3 smd rect (at 0.8 -2.15) (size 0.55 1.8) (layers F.Cu F.Paste F.Mask))
  (pad 4 smd rect (at 0.8 2.15) (size 0.55 1.8) (layers F.Cu F.Paste F.Mask))
  (pad 5 smd rect (at 0 -2.15) (size 0.55 1.8) (layers F.Cu F.Paste F.Mask))
  (pad 6 smd rect (at 0 2.15) (size 0.55 1.8) (layers F.Cu F.Paste F.Mask))
  (pad 7 smd rect (at -0.8 -2.15) (size 0.55 1.8) (layers F.Cu F.Paste F.Mask))
  (pad 8 smd rect (at -0.8 2.15) (size 0.55 1.8) (layers F.Cu F.Paste F.Mask))
  (pad 9 smd rect (at -1.6 -2.15) (size 0.55 1.8) (layers F.Cu F.Paste F.Mask))
  (pad 10 smd rect (at -1.6 2.15) (size 0.55 1.8) (layers F.Cu F.Paste F.Mask))
  (model C:/Users/jured/Desktop/zakljucno-delo/kicad/library/footprints/3d-models/Molex-SlimStack/female/straight/533071071.stp
    (offset (xyz 0 0 1.8))
    (scale (xyz 1 1 1))
    (rotate (xyz -90 0 0))
  )
)
