(module SlimStack_0.8mm_Male_16 (layer F.Cu) (tedit 60745E00)
  (fp_text reference REF** (at 0 -3.81) (layer F.SilkS)
    (effects (font (size 1 1) (thickness 0.15)))
  )
  (fp_text value SlimStack_0.8mm_Male_16 (at 0 3.81) (layer F.Fab)
    (effects (font (size 1 1) (thickness 0.15)))
  )
  (fp_line (start 4 -1.6) (end 4 1.2) (layer F.Fab) (width 0.12))
  (fp_line (start 4 1.2) (end 3.6 1.6) (layer F.Fab) (width 0.12))
  (fp_line (start -4 1.6) (end -4 -1.6) (layer F.Fab) (width 0.12))
  (fp_line (start -4 -1.6) (end 4 -1.6) (layer F.Fab) (width 0.12))
  (fp_line (start 4 -1.6) (end 4 1.2) (layer F.SilkS) (width 0.24))
  (fp_line (start 4 1.2) (end 3.6 1.6) (layer F.SilkS) (width 0.24))
  (fp_line (start 3.6 1.6) (end -4 1.6) (layer F.Fab) (width 0.12))
  (fp_line (start -4 1.6) (end -4 -1.6) (layer F.SilkS) (width 0.24))
  (pad 11 smd rect (at -1.2 1.9) (size 0.55 1.5) (layers F.Cu F.Paste F.Mask))
  (pad 10 smd rect (at -0.4 -1.9) (size 0.55 1.5) (layers F.Cu F.Paste F.Mask))
  (pad 12 smd rect (at -1.2 -1.9) (size 0.55 1.5) (layers F.Cu F.Paste F.Mask))
  (pad 14 smd rect (at -2 -1.9) (size 0.55 1.5) (layers F.Cu F.Paste F.Mask))
  (pad 16 smd rect (at -2.8 -1.9) (size 0.55 1.5) (layers F.Cu F.Paste F.Mask))
  (pad 8 smd rect (at 0.4 -1.9) (size 0.55 1.5) (layers F.Cu F.Paste F.Mask))
  (pad 9 smd rect (at -0.4 1.9) (size 0.55 1.5) (layers F.Cu F.Paste F.Mask))
  (pad 13 smd rect (at -2 1.9) (size 0.55 1.5) (layers F.Cu F.Paste F.Mask))
  (pad 15 smd rect (at -2.8 1.9) (size 0.55 1.5) (layers F.Cu F.Paste F.Mask))
  (pad 7 smd rect (at 0.4 1.9) (size 0.55 1.5) (layers F.Cu F.Paste F.Mask))
  (pad "" np_thru_hole circle (at 3.7 -1.3) (size 0.8 0.8) (drill 0.8) (layers *.Cu *.Mask))
  (pad "" np_thru_hole circle (at -3.7 -1.3) (size 0.8 0.8) (drill 0.8) (layers *.Cu *.Mask))
  (pad 5 smd rect (at 1.2 1.9) (size 0.55 1.5) (layers F.Cu F.Paste F.Mask))
  (pad 3 smd rect (at 2 1.9) (size 0.55 1.5) (layers F.Cu F.Paste F.Mask))
  (pad 6 smd rect (at 1.2 -1.9) (size 0.55 1.5) (layers F.Cu F.Paste F.Mask))
  (pad 4 smd rect (at 2 -1.9) (size 0.55 1.5) (layers F.Cu F.Paste F.Mask))
  (pad 2 smd rect (at 2.8 -1.9) (size 0.55 1.5) (layers F.Cu F.Paste F.Mask))
  (pad 1 smd rect (at 2.8 1.9) (size 0.55 1.5) (layers F.Cu F.Paste F.Mask))
  (model C:/Users/jured/Desktop/zakljucno-delo/design/kicad/library/footprints/3d-models/Molex-SlimStack/male/524651670.stp
    (offset (xyz 0 0 2.14))
    (scale (xyz 1 1 1))
    (rotate (xyz -90 0 0))
  )
)
