EESchema Schematic File Version 4
EELAYER 30 0
EELAYER END
$Descr A4 11693 8268
encoding utf-8
Sheet 1 1
Title ""
Date ""
Rev ""
Comp ""
Comment1 ""
Comment2 ""
Comment3 ""
Comment4 ""
$EndDescr
$Comp
L Connector_Generic:Conn_02x05_Odd_Even J2
U 1 1 60748E78
P 4000 4800
F 0 "J2" H 4050 5217 50  0000 C CNN
F 1 "To bottom plate" H 4050 5126 50  0000 C CNN
F 2 "Molex_SlimStack:SlimStack_0.8mm_Male_10" H 4000 4800 50  0001 C CNN
F 3 "~" H 4000 4800 50  0001 C CNN
	1    4000 4800
	1    0    0    -1  
$EndComp
$Comp
L Connector_Generic:Conn_02x05_Odd_Even J1
U 1 1 6074A55F
P 3900 2850
F 0 "J1" H 3950 3267 50  0000 C CNN
F 1 "To top plate" H 3950 3176 50  0000 C CNN
F 2 "Molex_SlimStack:SlimStack_0.8mm_Male_10" H 3900 2850 50  0001 C CNN
F 3 "~" H 3900 2850 50  0001 C CNN
	1    3900 2850
	1    0    0    -1  
$EndComp
$Comp
L power:GND #PWR0101
U 1 1 6086CFDF
P 8500 3100
F 0 "#PWR0101" H 8500 2850 50  0001 C CNN
F 1 "GND" H 8505 2927 50  0000 C CNN
F 2 "" H 8500 3100 50  0001 C CNN
F 3 "" H 8500 3100 50  0001 C CNN
	1    8500 3100
	1    0    0    -1  
$EndComp
$Comp
L Device:C C1
U 1 1 6086B663
P 8500 2850
F 0 "C1" H 8615 2896 50  0000 L CNN
F 1 "100nF" H 8615 2805 50  0000 L CNN
F 2 "Capacitor_SMD:C_0603_1608Metric" H 8538 2700 50  0001 C CNN
F 3 "~" H 8500 2850 50  0001 C CNN
	1    8500 2850
	1    0    0    -1  
$EndComp
$Comp
L TLE5012B:TLE5012B U1
U 1 1 60C5CA27
P 7300 2650
F 0 "U1" H 7300 3025 50  0000 C CNN
F 1 "TLE5012B" H 7300 2934 50  0000 C CNN
F 2 "Package_SO:Infineon_PG-DSO-8-43" H 7300 2350 50  0001 C CNN
F 3 "" H 7300 2350 50  0001 C CNN
	1    7300 2650
	1    0    0    -1  
$EndComp
Wire Wire Line
	7800 2700 8500 2700
Wire Wire Line
	7800 2500 7900 2500
Wire Wire Line
	7900 2500 7900 2600
Wire Wire Line
	7900 2600 7800 2600
Wire Wire Line
	7900 2600 7900 2800
Wire Wire Line
	7900 2800 7800 2800
Connection ~ 7900 2600
Wire Wire Line
	7900 2800 7900 3000
Wire Wire Line
	7900 3000 8500 3000
Connection ~ 7900 2800
Wire Wire Line
	8500 3100 8500 3000
Connection ~ 8500 3000
Wire Wire Line
	8500 2650 8500 2700
$Comp
L power:+3V3 #PWR0103
U 1 1 60870876
P 8500 2650
F 0 "#PWR0103" H 8500 2500 50  0001 C CNN
F 1 "+3V3" H 8515 2823 50  0000 C CNN
F 2 "" H 8500 2650 50  0001 C CNN
F 3 "" H 8500 2650 50  0001 C CNN
	1    8500 2650
	1    0    0    -1  
$EndComp
$Comp
L power:GND #PWR0102
U 1 1 6086E275
P 5750 2600
F 0 "#PWR0102" H 5750 2350 50  0001 C CNN
F 1 "GND" H 5755 2427 50  0000 C CNN
F 2 "" H 5750 2600 50  0001 C CNN
F 3 "" H 5750 2600 50  0001 C CNN
	1    5750 2600
	1    0    0    -1  
$EndComp
Connection ~ 8500 2700
Wire Wire Line
	5750 2600 5750 2500
Wire Wire Line
	5750 2500 6800 2500
Text GLabel 6400 2600 0    50   Input ~ 0
SPI_CLK
Text GLabel 6400 2700 0    50   Input ~ 0
SPI_CS
Text GLabel 6400 2800 0    50   Output ~ 0
SPI_MISO
Text GLabel 6400 2900 0    50   Input ~ 0
SPI_MOSI
Wire Wire Line
	6400 2600 6800 2600
Wire Wire Line
	6800 2700 6400 2700
Wire Wire Line
	6400 2800 6500 2800
Wire Wire Line
	6400 2900 6500 2900
Wire Wire Line
	6500 2900 6500 2800
Connection ~ 6500 2800
Wire Wire Line
	6500 2800 6700 2800
$Comp
L power:GND #PWR0104
U 1 1 60C64B2E
P 2800 4600
F 0 "#PWR0104" H 2800 4350 50  0001 C CNN
F 1 "GND" H 2805 4427 50  0000 C CNN
F 2 "" H 2800 4600 50  0001 C CNN
F 3 "" H 2800 4600 50  0001 C CNN
	1    2800 4600
	1    0    0    -1  
$EndComp
$Comp
L power:+3V3 #PWR0105
U 1 1 60C66298
P 3000 5000
F 0 "#PWR0105" H 3000 4850 50  0001 C CNN
F 1 "+3V3" H 3015 5173 50  0000 C CNN
F 2 "" H 3000 5000 50  0001 C CNN
F 3 "" H 3000 5000 50  0001 C CNN
	1    3000 5000
	1    0    0    -1  
$EndComp
Wire Wire Line
	2800 4600 3700 4600
Wire Wire Line
	3800 4700 3700 4700
Wire Wire Line
	3700 4700 3700 4600
Connection ~ 3700 4600
Wire Wire Line
	3700 4600 3800 4600
Wire Wire Line
	3000 5000 3700 5000
Wire Wire Line
	3800 4900 3700 4900
Wire Wire Line
	3700 4900 3700 5000
Connection ~ 3700 5000
Wire Wire Line
	3700 5000 3800 5000
Text GLabel 4850 4600 2    50   Input ~ 0
SPI_MISO
Text GLabel 4850 4700 2    50   Output ~ 0
SPI_MOSI
Text GLabel 4850 4800 2    50   Output ~ 0
SPI_CS
Text GLabel 4850 4900 2    50   Output ~ 0
SPI_CLK
Wire Wire Line
	4300 4600 4850 4600
Wire Wire Line
	4850 4700 4300 4700
Wire Wire Line
	4300 4800 4850 4800
Wire Wire Line
	4850 4900 4300 4900
$Comp
L Device:R R1
U 1 1 60C89F6D
P 6700 3050
F 0 "R1" H 6770 3096 50  0000 L CNN
F 1 "4.7k" H 6770 3005 50  0000 L CNN
F 2 "Resistor_SMD:R_0402_1005Metric" V 6630 3050 50  0001 C CNN
F 3 "~" H 6700 3050 50  0001 C CNN
	1    6700 3050
	1    0    0    -1  
$EndComp
Wire Wire Line
	6700 2900 6700 2800
Connection ~ 6700 2800
Wire Wire Line
	6700 2800 6800 2800
$Comp
L power:+3V3 #PWR0106
U 1 1 60C8AFE7
P 7000 3200
F 0 "#PWR0106" H 7000 3050 50  0001 C CNN
F 1 "+3V3" H 7015 3373 50  0000 C CNN
F 2 "" H 7000 3200 50  0001 C CNN
F 3 "" H 7000 3200 50  0001 C CNN
	1    7000 3200
	1    0    0    -1  
$EndComp
Wire Wire Line
	6700 3200 7000 3200
$EndSCHEMATC
