EESchema Schematic File Version 4
EELAYER 30 0
EELAYER END
$Descr A3 16535 11693
encoding utf-8
Sheet 1 1
Title "Millibot: Spodnja ploščica"
Date "2021-04-08"
Rev ""
Comp "Fakulteta za strojništvo, Univerza v Ljubljani"
Comment1 ""
Comment2 ""
Comment3 ""
Comment4 ""
$EndDescr
$Comp
L Connector_Generic:Conn_02x05_Odd_Even J7
U 1 1 606F94FC
P 7050 1250
F 0 "J7" H 7100 1667 50  0000 C CNN
F 1 "To front right plate" H 7100 1576 50  0000 C CNN
F 2 "Molex_SlimStack:SlimStack_0.8mm_Female_RA_10" H 7050 1250 50  0001 C CNN
F 3 "~" H 7050 1250 50  0001 C CNN
	1    7050 1250
	1    0    0    -1  
$EndComp
$Comp
L Connector_Generic:Conn_02x05_Odd_Even J5
U 1 1 606FA9BE
P 4550 1250
F 0 "J5" H 4600 1667 50  0000 C CNN
F 1 "To front center plate" H 4600 1576 50  0000 C CNN
F 2 "Molex_SlimStack:SlimStack_0.8mm_Female_RA_10" H 4550 1250 50  0001 C CNN
F 3 "~" H 4550 1250 50  0001 C CNN
	1    4550 1250
	1    0    0    -1  
$EndComp
$Comp
L Connector_Generic:Conn_02x05_Odd_Even J2
U 1 1 606FB1D2
P 2050 1250
F 0 "J2" H 2100 1667 50  0000 C CNN
F 1 "To front left plate" H 2100 1576 50  0000 C CNN
F 2 "Molex_SlimStack:SlimStack_0.8mm_Female_RA_10" H 2050 1250 50  0001 C CNN
F 3 "~" H 2050 1250 50  0001 C CNN
	1    2050 1250
	1    0    0    -1  
$EndComp
$Comp
L Connector_Generic:Conn_02x05_Odd_Even J3
U 1 1 606FBE26
P 3050 3750
F 0 "J3" H 3100 4167 50  0000 C CNN
F 1 "To left encoder plate" H 3100 4076 50  0000 C CNN
F 2 "Molex_SlimStack:SlimStack_0.8mm_Female_RA_10" H 3050 3750 50  0001 C CNN
F 3 "~" H 3050 3750 50  0001 C CNN
	1    3050 3750
	1    0    0    -1  
$EndComp
$Comp
L Connector_Generic:Conn_02x10_Odd_Even J4
U 1 1 606FBF98
P 3050 4950
F 0 "J4" H 3100 5567 50  0000 C CNN
F 1 "To back plate" H 3100 5476 50  0000 C CNN
F 2 "Molex_SlimStack:SlimStack_0.8mm_Female_RA_20" H 3050 4950 50  0001 C CNN
F 3 "~" H 3050 4950 50  0001 C CNN
	1    3050 4950
	1    0    0    -1  
$EndComp
$Comp
L Connector_Generic:Conn_02x10_Odd_Even J1
U 1 1 606FF084
P 3050 2450
F 0 "J1" H 3100 3067 50  0000 C CNN
F 1 "To left plate" H 3100 2976 50  0000 C CNN
F 2 "Molex_SlimStack:SlimStack_0.8mm_Female_RA_20" H 3050 2450 50  0001 C CNN
F 3 "~" H 3050 2450 50  0001 C CNN
	1    3050 2450
	1    0    0    -1  
$EndComp
$Comp
L Connector_Generic:Conn_02x10_Odd_Even J8
U 1 1 606FFA47
P 5550 2450
F 0 "J8" H 5600 3067 50  0000 C CNN
F 1 "To right plate" H 5600 2976 50  0000 C CNN
F 2 "Molex_SlimStack:SlimStack_0.8mm_Female_RA_20" H 5550 2450 50  0001 C CNN
F 3 "~" H 5550 2450 50  0001 C CNN
	1    5550 2450
	1    0    0    -1  
$EndComp
$Comp
L Device:R R2
U 1 1 6072708C
P 13500 3350
F 0 "R2" H 13570 3396 50  0000 L CNN
F 1 "100" H 13570 3305 50  0000 L CNN
F 2 "Resistor_SMD:R_0402_1005Metric" V 13430 3350 50  0001 C CNN
F 3 "~" H 13500 3350 50  0001 C CNN
	1    13500 3350
	1    0    0    -1  
$EndComp
$Comp
L Device:R R1
U 1 1 60724FC2
P 13500 1850
F 0 "R1" H 13570 1896 50  0000 L CNN
F 1 "100" H 13570 1805 50  0000 L CNN
F 2 "Resistor_SMD:R_0402_1005Metric" V 13430 1850 50  0001 C CNN
F 3 "~" H 13500 1850 50  0001 C CNN
	1    13500 1850
	1    0    0    -1  
$EndComp
$Comp
L Sensor_Proximity:SFH9206 U2
U 1 1 6071F140
P 14000 3100
F 0 "U2" H 14000 3417 50  0000 C CNN
F 1 "SFH9206" H 14000 3326 50  0000 C CNN
F 2 "OptoDevice:Osram_SFH9x0x" H 13800 2900 50  0001 L CIN
F 3 "http://www.osram-os.com/Graphics/XPic6/00200860_0.pdf" V 13960 3140 50  0001 L CNN
	1    14000 3100
	1    0    0    -1  
$EndComp
$Comp
L Sensor_Proximity:SFH9206 U1
U 1 1 60720C14
P 14000 1600
F 0 "U1" H 14000 1917 50  0000 C CNN
F 1 "SFH9206" H 14000 1826 50  0000 C CNN
F 2 "OptoDevice:Osram_SFH9x0x" H 14000 1825 50  0001 C CIN
F 3 "http://www.osram-os.com/Graphics/XPic6/00200860_0.pdf" V 13960 1640 50  0001 L CNN
	1    14000 1600
	1    0    0    -1  
$EndComp
$Comp
L Connector_Generic:Conn_02x05_Odd_Even J6
U 1 1 6074774C
P 5550 3750
F 0 "J6" H 5600 4167 50  0000 C CNN
F 1 "To right encoder plate" H 5600 4076 50  0000 C CNN
F 2 "Molex_SlimStack:SlimStack_0.8mm_Female_RA_10" H 5550 3750 50  0001 C CNN
F 3 "~" H 5550 3750 50  0001 C CNN
	1    5550 3750
	1    0    0    -1  
$EndComp
$Comp
L Device:R R4
U 1 1 607A13B8
P 13500 6350
F 0 "R4" H 13570 6396 50  0000 L CNN
F 1 "100" H 13570 6305 50  0000 L CNN
F 2 "Resistor_SMD:R_0402_1005Metric" V 13430 6350 50  0001 C CNN
F 3 "~" H 13500 6350 50  0001 C CNN
	1    13500 6350
	1    0    0    -1  
$EndComp
$Comp
L Sensor_Proximity:SFH9206 U4
U 1 1 607A13BE
P 14000 6100
F 0 "U4" H 14000 6417 50  0000 C CNN
F 1 "SFH9206" H 14000 6326 50  0000 C CNN
F 2 "OptoDevice:Osram_SFH9x0x" H 13800 5900 50  0001 L CIN
F 3 "http://www.osram-os.com/Graphics/XPic6/00200860_0.pdf" V 13960 6140 50  0001 L CNN
	1    14000 6100
	1    0    0    -1  
$EndComp
$Comp
L Sensor_Proximity:SFH9206 U3
U 1 1 6071DA69
P 14000 4600
F 0 "U3" H 14000 4917 50  0000 C CNN
F 1 "SFH9206" H 14000 4826 50  0000 C CNN
F 2 "OptoDevice:Osram_SFH9x0x" H 13800 4400 50  0001 L CIN
F 3 "http://www.osram-os.com/Graphics/XPic6/00200860_0.pdf" V 13960 4640 50  0001 L CNN
	1    14000 4600
	1    0    0    -1  
$EndComp
$Comp
L Device:R R3
U 1 1 6072821D
P 13500 4850
F 0 "R3" H 13570 4896 50  0000 L CNN
F 1 "100" H 13570 4805 50  0000 L CNN
F 2 "Resistor_SMD:R_0402_1005Metric" V 13430 4850 50  0001 C CNN
F 3 "~" H 13500 4850 50  0001 C CNN
	1    13500 4850
	1    0    0    -1  
$EndComp
Text GLabel 13500 2000 3    50   Output ~ 0
V_led
Text GLabel 13500 3500 3    50   Output ~ 0
V_led
Text GLabel 13500 5000 3    50   Output ~ 0
V_led
Text GLabel 13500 6500 3    50   Output ~ 0
V_led
Wire Wire Line
	13500 6200 13700 6200
Wire Wire Line
	13500 4700 13700 4700
Wire Wire Line
	13500 3200 13700 3200
Wire Wire Line
	13500 1700 13700 1700
$Comp
L power:+3V3 #PWR0101
U 1 1 60949994
P 13500 1500
F 0 "#PWR0101" H 13500 1350 50  0001 C CNN
F 1 "+3V3" H 13515 1673 50  0000 C CNN
F 2 "" H 13500 1500 50  0001 C CNN
F 3 "" H 13500 1500 50  0001 C CNN
	1    13500 1500
	1    0    0    -1  
$EndComp
Wire Wire Line
	13500 1500 13700 1500
$Comp
L power:+3V3 #PWR0102
U 1 1 6094C91E
P 13500 3000
F 0 "#PWR0102" H 13500 2850 50  0001 C CNN
F 1 "+3V3" H 13515 3173 50  0000 C CNN
F 2 "" H 13500 3000 50  0001 C CNN
F 3 "" H 13500 3000 50  0001 C CNN
	1    13500 3000
	1    0    0    -1  
$EndComp
Wire Wire Line
	13500 3000 13700 3000
$Comp
L power:+3V3 #PWR0103
U 1 1 6094D408
P 13500 4500
F 0 "#PWR0103" H 13500 4350 50  0001 C CNN
F 1 "+3V3" H 13515 4673 50  0000 C CNN
F 2 "" H 13500 4500 50  0001 C CNN
F 3 "" H 13500 4500 50  0001 C CNN
	1    13500 4500
	1    0    0    -1  
$EndComp
Wire Wire Line
	13500 4500 13700 4500
$Comp
L power:+3V3 #PWR0104
U 1 1 6094D78C
P 13500 6000
F 0 "#PWR0104" H 13500 5850 50  0001 C CNN
F 1 "+3V3" H 13515 6173 50  0000 C CNN
F 2 "" H 13500 6000 50  0001 C CNN
F 3 "" H 13500 6000 50  0001 C CNN
	1    13500 6000
	1    0    0    -1  
$EndComp
Wire Wire Line
	13500 6000 13700 6000
Text GLabel 14700 8050 1    50   Input ~ 0
V_led
$Comp
L power:GND #PWR0105
U 1 1 6095DD27
P 14700 8450
F 0 "#PWR0105" H 14700 8200 50  0001 C CNN
F 1 "GND" H 14705 8277 50  0000 C CNN
F 2 "" H 14700 8450 50  0001 C CNN
F 3 "" H 14700 8450 50  0001 C CNN
	1    14700 8450
	1    0    0    -1  
$EndComp
$Comp
L Device:R R5
U 1 1 6095E681
P 14250 8250
F 0 "R5" V 14043 8250 50  0000 C CNN
F 1 "100" V 14134 8250 50  0000 C CNN
F 2 "Resistor_SMD:R_0402_1005Metric" V 14180 8250 50  0001 C CNN
F 3 "~" H 14250 8250 50  0001 C CNN
	1    14250 8250
	0    1    1    0   
$EndComp
Text GLabel 14100 8250 0    50   Input ~ 0
LS_EN
$Comp
L power:GND #PWR0106
U 1 1 608C7AF2
P 14500 1700
F 0 "#PWR0106" H 14500 1450 50  0001 C CNN
F 1 "GND" H 14505 1527 50  0000 C CNN
F 2 "" H 14500 1700 50  0001 C CNN
F 3 "" H 14500 1700 50  0001 C CNN
	1    14500 1700
	1    0    0    -1  
$EndComp
Wire Wire Line
	14300 1700 14500 1700
$Comp
L power:GND #PWR0107
U 1 1 608CA853
P 14500 3200
F 0 "#PWR0107" H 14500 2950 50  0001 C CNN
F 1 "GND" H 14505 3027 50  0000 C CNN
F 2 "" H 14500 3200 50  0001 C CNN
F 3 "" H 14500 3200 50  0001 C CNN
	1    14500 3200
	1    0    0    -1  
$EndComp
Wire Wire Line
	14300 3200 14500 3200
$Comp
L power:GND #PWR0108
U 1 1 608CACA0
P 14500 4700
F 0 "#PWR0108" H 14500 4450 50  0001 C CNN
F 1 "GND" H 14505 4527 50  0000 C CNN
F 2 "" H 14500 4700 50  0001 C CNN
F 3 "" H 14500 4700 50  0001 C CNN
	1    14500 4700
	1    0    0    -1  
$EndComp
Wire Wire Line
	14300 4700 14500 4700
$Comp
L power:GND #PWR0109
U 1 1 608CAF37
P 14500 6200
F 0 "#PWR0109" H 14500 5950 50  0001 C CNN
F 1 "GND" H 14505 6027 50  0000 C CNN
F 2 "" H 14500 6200 50  0001 C CNN
F 3 "" H 14500 6200 50  0001 C CNN
	1    14500 6200
	1    0    0    -1  
$EndComp
Wire Wire Line
	14300 6200 14500 6200
$Comp
L power:+3V3 #PWR0110
U 1 1 608CB171
P 14500 1200
F 0 "#PWR0110" H 14500 1050 50  0001 C CNN
F 1 "+3V3" H 14515 1373 50  0000 C CNN
F 2 "" H 14500 1200 50  0001 C CNN
F 3 "" H 14500 1200 50  0001 C CNN
	1    14500 1200
	1    0    0    -1  
$EndComp
$Comp
L Device:R R6
U 1 1 608CD0B3
P 14500 1350
F 0 "R6" H 14430 1304 50  0000 R CNN
F 1 "10k" H 14430 1395 50  0000 R CNN
F 2 "Resistor_SMD:R_0402_1005Metric" V 14430 1350 50  0001 C CNN
F 3 "~" H 14500 1350 50  0001 C CNN
	1    14500 1350
	-1   0    0    1   
$EndComp
Text GLabel 14750 1500 2    50   Output ~ 0
LS_0
Wire Wire Line
	14750 1500 14500 1500
Wire Wire Line
	14500 1500 14300 1500
Connection ~ 14500 1500
$Comp
L power:+3V3 #PWR0111
U 1 1 608D4092
P 14500 2700
F 0 "#PWR0111" H 14500 2550 50  0001 C CNN
F 1 "+3V3" H 14515 2873 50  0000 C CNN
F 2 "" H 14500 2700 50  0001 C CNN
F 3 "" H 14500 2700 50  0001 C CNN
	1    14500 2700
	1    0    0    -1  
$EndComp
$Comp
L Device:R R7
U 1 1 608D4098
P 14500 2850
F 0 "R7" H 14430 2804 50  0000 R CNN
F 1 "10k" H 14430 2895 50  0000 R CNN
F 2 "Resistor_SMD:R_0402_1005Metric" V 14430 2850 50  0001 C CNN
F 3 "~" H 14500 2850 50  0001 C CNN
	1    14500 2850
	-1   0    0    1   
$EndComp
Text GLabel 14750 3000 2    50   Output ~ 0
LS_1
Wire Wire Line
	14750 3000 14500 3000
Wire Wire Line
	14500 3000 14300 3000
Connection ~ 14500 3000
$Comp
L power:+3V3 #PWR0112
U 1 1 608D5EC8
P 14500 4200
F 0 "#PWR0112" H 14500 4050 50  0001 C CNN
F 1 "+3V3" H 14515 4373 50  0000 C CNN
F 2 "" H 14500 4200 50  0001 C CNN
F 3 "" H 14500 4200 50  0001 C CNN
	1    14500 4200
	1    0    0    -1  
$EndComp
$Comp
L Device:R R8
U 1 1 608D5ECE
P 14500 4350
F 0 "R8" H 14430 4304 50  0000 R CNN
F 1 "10k" H 14430 4395 50  0000 R CNN
F 2 "Resistor_SMD:R_0402_1005Metric" V 14430 4350 50  0001 C CNN
F 3 "~" H 14500 4350 50  0001 C CNN
	1    14500 4350
	-1   0    0    1   
$EndComp
Text GLabel 14750 4500 2    50   Output ~ 0
LS_2
Wire Wire Line
	14750 4500 14500 4500
Wire Wire Line
	14500 4500 14300 4500
Connection ~ 14500 4500
$Comp
L power:+3V3 #PWR0113
U 1 1 608D6A4E
P 14500 5700
F 0 "#PWR0113" H 14500 5550 50  0001 C CNN
F 1 "+3V3" H 14515 5873 50  0000 C CNN
F 2 "" H 14500 5700 50  0001 C CNN
F 3 "" H 14500 5700 50  0001 C CNN
	1    14500 5700
	1    0    0    -1  
$EndComp
$Comp
L Device:R R9
U 1 1 608D6A54
P 14500 5850
F 0 "R9" H 14430 5804 50  0000 R CNN
F 1 "10k" H 14430 5895 50  0000 R CNN
F 2 "Resistor_SMD:R_0402_1005Metric" V 14430 5850 50  0001 C CNN
F 3 "~" H 14500 5850 50  0001 C CNN
	1    14500 5850
	-1   0    0    1   
$EndComp
Text GLabel 14750 6000 2    50   Output ~ 0
LS_3
Wire Wire Line
	14750 6000 14500 6000
Wire Wire Line
	14500 6000 14300 6000
Connection ~ 14500 6000
Text GLabel 2600 5450 0    50   Output ~ 0
LS_0
Text GLabel 2600 5350 0    50   Output ~ 0
LS_1
Text GLabel 2600 5250 0    50   Output ~ 0
LS_2
Text GLabel 2600 5150 0    50   Output ~ 0
LS_3
Text GLabel 3600 5150 2    50   Output ~ 0
LS_EN
$Comp
L power:GND #PWR0114
U 1 1 60C2AFE4
P 950 1050
F 0 "#PWR0114" H 950 800 50  0001 C CNN
F 1 "GND" H 955 877 50  0000 C CNN
F 2 "" H 950 1050 50  0001 C CNN
F 3 "" H 950 1050 50  0001 C CNN
	1    950  1050
	1    0    0    -1  
$EndComp
Wire Wire Line
	1850 1150 1750 1150
Wire Wire Line
	1750 1150 1750 1050
Wire Wire Line
	2450 1050 2700 1050
Connection ~ 2450 1050
Wire Wire Line
	2450 1150 2450 1050
Wire Wire Line
	2350 1150 2450 1150
Wire Wire Line
	2350 1050 2450 1050
$Comp
L power:+3V3 #PWR0115
U 1 1 60C2903E
P 2700 1050
F 0 "#PWR0115" H 2700 900 50  0001 C CNN
F 1 "+3V3" H 2715 1223 50  0000 C CNN
F 2 "" H 2700 1050 50  0001 C CNN
F 3 "" H 2700 1050 50  0001 C CNN
	1    2700 1050
	1    0    0    -1  
$EndComp
Wire Wire Line
	4950 1050 5200 1050
Connection ~ 4950 1050
Wire Wire Line
	4950 1150 4950 1050
Wire Wire Line
	4850 1150 4950 1150
Wire Wire Line
	4850 1050 4950 1050
$Comp
L power:+3V3 #PWR0116
U 1 1 60C33726
P 5200 1050
F 0 "#PWR0116" H 5200 900 50  0001 C CNN
F 1 "+3V3" H 5215 1223 50  0000 C CNN
F 2 "" H 5200 1050 50  0001 C CNN
F 3 "" H 5200 1050 50  0001 C CNN
	1    5200 1050
	1    0    0    -1  
$EndComp
Wire Wire Line
	7450 1050 7700 1050
Connection ~ 7450 1050
Wire Wire Line
	7450 1150 7450 1050
Wire Wire Line
	7350 1150 7450 1150
Wire Wire Line
	7350 1050 7450 1050
$Comp
L power:+3V3 #PWR0117
U 1 1 60C34EA1
P 7700 1050
F 0 "#PWR0117" H 7700 900 50  0001 C CNN
F 1 "+3V3" H 7715 1223 50  0000 C CNN
F 2 "" H 7700 1050 50  0001 C CNN
F 3 "" H 7700 1050 50  0001 C CNN
	1    7700 1050
	1    0    0    -1  
$EndComp
$Comp
L power:GND #PWR0118
U 1 1 60C3707E
P 3450 1050
F 0 "#PWR0118" H 3450 800 50  0001 C CNN
F 1 "GND" H 3455 877 50  0000 C CNN
F 2 "" H 3450 1050 50  0001 C CNN
F 3 "" H 3450 1050 50  0001 C CNN
	1    3450 1050
	1    0    0    -1  
$EndComp
Wire Wire Line
	4350 1150 4250 1150
Wire Wire Line
	4250 1150 4250 1050
Wire Wire Line
	4250 1050 4350 1050
$Comp
L power:GND #PWR0119
U 1 1 60C3878C
P 5950 1050
F 0 "#PWR0119" H 5950 800 50  0001 C CNN
F 1 "GND" H 5955 877 50  0000 C CNN
F 2 "" H 5950 1050 50  0001 C CNN
F 3 "" H 5950 1050 50  0001 C CNN
	1    5950 1050
	1    0    0    -1  
$EndComp
Wire Wire Line
	6850 1150 6750 1150
Wire Wire Line
	6750 1150 6750 1050
Wire Wire Line
	6750 1050 6850 1050
Wire Wire Line
	3350 5150 3600 5150
Wire Wire Line
	2600 5150 2850 5150
Wire Wire Line
	2850 5250 2600 5250
Wire Wire Line
	2600 5350 2850 5350
Wire Wire Line
	2850 5450 2600 5450
$Comp
L power:GND #PWR0120
U 1 1 60C52154
P 4650 4950
F 0 "#PWR0120" H 4650 4700 50  0001 C CNN
F 1 "GND" H 4655 4777 50  0000 C CNN
F 2 "" H 4650 4950 50  0001 C CNN
F 3 "" H 4650 4950 50  0001 C CNN
	1    4650 4950
	1    0    0    -1  
$EndComp
Wire Wire Line
	4650 4950 3450 4950
Wire Wire Line
	3350 5050 3450 5050
Wire Wire Line
	3450 5050 3450 4950
Connection ~ 3450 4950
Wire Wire Line
	3450 4950 3350 4950
$Comp
L power:GND #PWR0121
U 1 1 60C56AC3
P 1650 4950
F 0 "#PWR0121" H 1650 4700 50  0001 C CNN
F 1 "GND" H 1655 4777 50  0000 C CNN
F 2 "" H 1650 4950 50  0001 C CNN
F 3 "" H 1650 4950 50  0001 C CNN
	1    1650 4950
	1    0    0    -1  
$EndComp
Wire Wire Line
	2850 4950 2750 4950
Wire Wire Line
	2850 5050 2750 5050
Wire Wire Line
	2750 5050 2750 4950
Connection ~ 2750 4950
Wire Wire Line
	2750 4950 1650 4950
$Comp
L power:+3V3 #PWR0122
U 1 1 60C5E13C
P 4650 5450
F 0 "#PWR0122" H 4650 5300 50  0001 C CNN
F 1 "+3V3" H 4665 5623 50  0000 C CNN
F 2 "" H 4650 5450 50  0001 C CNN
F 3 "" H 4650 5450 50  0001 C CNN
	1    4650 5450
	1    0    0    -1  
$EndComp
Wire Wire Line
	4650 5450 3450 5450
Wire Wire Line
	3350 5350 3450 5350
Wire Wire Line
	3450 5350 3450 5450
Connection ~ 3450 5450
Wire Wire Line
	3450 5450 3350 5450
Text GLabel 2600 4850 0    50   Output ~ 0
SPI_CS1
Text GLabel 2600 4750 0    50   Output ~ 0
SPI_MOSI
Text GLabel 2600 4650 0    50   Output ~ 0
SPI_MISO
Text GLabel 3600 4850 2    50   Output ~ 0
SPI_CS0
Text GLabel 3600 4750 2    50   Output ~ 0
SPI_CLK
Text GLabel 3600 4650 2    50   Output ~ 0
I2C_CLK
Text GLabel 3600 4550 2    50   Output ~ 0
I2C_SDA
Wire Wire Line
	3350 4850 3600 4850
Wire Wire Line
	3350 4750 3600 4750
Wire Wire Line
	3350 4650 3600 4650
Wire Wire Line
	3350 4550 3600 4550
Wire Wire Line
	2600 4650 2850 4650
Wire Wire Line
	2850 4750 2600 4750
Wire Wire Line
	2600 4850 2850 4850
$Comp
L Transistor_FET:2N7002 Q1
U 1 1 60C8EAB0
P 14600 8250
F 0 "Q1" H 14804 8296 50  0000 L CNN
F 1 "BSS806N" H 14804 8205 50  0000 L CNN
F 2 "Package_TO_SOT_SMD:SOT-23" H 14800 8175 50  0001 L CIN
F 3 "https://www.onsemi.com/pub/Collateral/NDS7002A-D.PDF" H 14600 8250 50  0001 L CNN
	1    14600 8250
	1    0    0    -1  
$EndComp
Text GLabel 4150 1450 0    50   Input ~ 0
I2C_SDA
Text GLabel 4150 1350 0    50   Input ~ 0
I2C_CLK
Wire Wire Line
	3450 1050 4250 1050
Connection ~ 4250 1050
Wire Wire Line
	4150 1350 4350 1350
Wire Wire Line
	4150 1450 4350 1450
Text GLabel 4150 1250 0    50   Input ~ 0
RS_EN
Wire Wire Line
	4150 1250 4350 1250
Text GLabel 1650 1450 0    50   Input ~ 0
I2C_SDA
Text GLabel 1650 1350 0    50   Input ~ 0
I2C_CLK
Wire Wire Line
	1650 1350 1850 1350
Wire Wire Line
	1650 1450 1850 1450
Text GLabel 1650 1250 0    50   Input ~ 0
RS_EN
Wire Wire Line
	1650 1250 1850 1250
Text GLabel 6650 1450 0    50   Input ~ 0
I2C_SDA
Text GLabel 6650 1350 0    50   Input ~ 0
I2C_CLK
Wire Wire Line
	6650 1350 6850 1350
Wire Wire Line
	6650 1450 6850 1450
Text GLabel 6650 1250 0    50   Input ~ 0
RS_EN
Wire Wire Line
	6650 1250 6850 1250
Wire Wire Line
	5950 1050 6750 1050
Connection ~ 6750 1050
Wire Wire Line
	1750 1050 1850 1050
Wire Wire Line
	950  1050 1750 1050
Connection ~ 1750 1050
Text GLabel 3600 5250 2    50   Output ~ 0
RS_EN
Wire Wire Line
	3350 5250 3600 5250
Text GLabel 2500 3550 0    50   Input ~ 0
SPI_MISO
Wire Wire Line
	2500 3550 2850 3550
Text GLabel 2500 3650 0    50   Input ~ 0
SPI_MOSI
Wire Wire Line
	2500 3650 2850 3650
Text GLabel 2500 3750 0    50   Input ~ 0
SPI_CS0
Wire Wire Line
	2500 3750 2850 3750
Text GLabel 2500 3850 0    50   Input ~ 0
SPI_CLK
Wire Wire Line
	2500 3850 2850 3850
Text GLabel 6200 3950 2    50   Input ~ 0
SPI_MISO
Text GLabel 6200 3850 2    50   Input ~ 0
SPI_MOSI
Text GLabel 6200 3750 2    50   Input ~ 0
SPI_CS1
Text GLabel 6200 3650 2    50   Input ~ 0
SPI_CLK
Wire Wire Line
	5850 3950 6200 3950
Wire Wire Line
	5850 3850 6200 3850
Wire Wire Line
	5850 3750 6200 3750
Wire Wire Line
	5000 3550 5250 3550
$Comp
L power:GND #PWR0123
U 1 1 60C9B6BC
P 5000 3550
F 0 "#PWR0123" H 5000 3300 50  0001 C CNN
F 1 "GND" H 5005 3377 50  0000 C CNN
F 2 "" H 5000 3550 50  0001 C CNN
F 3 "" H 5000 3550 50  0001 C CNN
	1    5000 3550
	1    0    0    -1  
$EndComp
Wire Wire Line
	5350 3650 5250 3650
Wire Wire Line
	5250 3650 5250 3550
Connection ~ 5250 3550
Wire Wire Line
	5250 3550 5350 3550
$Comp
L power:GND #PWR0124
U 1 1 60CA8C71
P 3700 3950
F 0 "#PWR0124" H 3700 3700 50  0001 C CNN
F 1 "GND" H 3705 3777 50  0000 C CNN
F 2 "" H 3700 3950 50  0001 C CNN
F 3 "" H 3700 3950 50  0001 C CNN
	1    3700 3950
	1    0    0    -1  
$EndComp
Wire Wire Line
	3450 3950 3700 3950
Wire Wire Line
	3350 3550 3450 3550
Wire Wire Line
	3450 3550 3450 3650
Wire Wire Line
	3450 3650 3350 3650
$Comp
L power:+3V3 #PWR0125
U 1 1 60CBD71E
P 3700 3550
F 0 "#PWR0125" H 3700 3400 50  0001 C CNN
F 1 "+3V3" H 3715 3723 50  0000 C CNN
F 2 "" H 3700 3550 50  0001 C CNN
F 3 "" H 3700 3550 50  0001 C CNN
	1    3700 3550
	1    0    0    -1  
$EndComp
Wire Wire Line
	3350 3950 3450 3950
Wire Wire Line
	3350 3850 3450 3850
Wire Wire Line
	3450 3850 3450 3950
Wire Wire Line
	3450 3550 3700 3550
Connection ~ 3450 3950
Connection ~ 3450 3550
$Comp
L power:+3V3 #PWR0126
U 1 1 60CE14FC
P 4700 3950
F 0 "#PWR0126" H 4700 3800 50  0001 C CNN
F 1 "+3V3" H 4715 4123 50  0000 C CNN
F 2 "" H 4700 3950 50  0001 C CNN
F 3 "" H 4700 3950 50  0001 C CNN
	1    4700 3950
	1    0    0    -1  
$EndComp
Wire Wire Line
	4700 3950 5250 3950
Wire Wire Line
	5350 3850 5250 3850
Wire Wire Line
	5250 3850 5250 3950
Connection ~ 5250 3950
Wire Wire Line
	5250 3950 5350 3950
Text GLabel 5150 2950 0    50   Input ~ 0
I2C_SDA
Text GLabel 5150 2850 0    50   Input ~ 0
I2C_CLK
Wire Wire Line
	5150 2850 5350 2850
Wire Wire Line
	5150 2950 5350 2950
Text GLabel 2650 2950 0    50   Input ~ 0
I2C_SDA
Text GLabel 2650 2850 0    50   Input ~ 0
I2C_CLK
Wire Wire Line
	2650 2850 2850 2850
Wire Wire Line
	2650 2950 2850 2950
Wire Wire Line
	6200 3650 5850 3650
$Comp
L power:GND #PWR?
U 1 1 60C5D2AA
P 2300 2450
F 0 "#PWR?" H 2300 2200 50  0001 C CNN
F 1 "GND" H 2305 2277 50  0000 C CNN
F 2 "" H 2300 2450 50  0001 C CNN
F 3 "" H 2300 2450 50  0001 C CNN
	1    2300 2450
	1    0    0    -1  
$EndComp
Wire Wire Line
	2850 2550 2750 2550
Wire Wire Line
	2750 2550 2750 2450
Wire Wire Line
	2750 2450 2850 2450
Wire Wire Line
	5350 2550 5250 2550
Wire Wire Line
	5250 2550 5250 2450
Wire Wire Line
	5250 2450 5350 2450
$Comp
L power:GND #PWR?
U 1 1 60C8B36A
P 4800 2450
F 0 "#PWR?" H 4800 2200 50  0001 C CNN
F 1 "GND" H 4805 2277 50  0000 C CNN
F 2 "" H 4800 2450 50  0001 C CNN
F 3 "" H 4800 2450 50  0001 C CNN
	1    4800 2450
	1    0    0    -1  
$EndComp
Wire Wire Line
	4800 2450 5250 2450
Connection ~ 5250 2450
Wire Wire Line
	5850 2450 5950 2450
Wire Wire Line
	5950 2450 5950 2550
Wire Wire Line
	5950 2550 5850 2550
Connection ~ 5950 2450
Wire Wire Line
	5950 2450 6400 2450
$Comp
L power:GND #PWR?
U 1 1 60CB6E67
P 6400 2450
F 0 "#PWR?" H 6400 2200 50  0001 C CNN
F 1 "GND" H 6405 2277 50  0000 C CNN
F 2 "" H 6400 2450 50  0001 C CNN
F 3 "" H 6400 2450 50  0001 C CNN
	1    6400 2450
	1    0    0    -1  
$EndComp
Wire Wire Line
	3350 2450 3450 2450
Wire Wire Line
	3450 2450 3450 2550
Wire Wire Line
	3450 2550 3350 2550
Connection ~ 3450 2450
Wire Wire Line
	3450 2450 3900 2450
$Comp
L power:GND #PWR?
U 1 1 60CBE52C
P 3900 2450
F 0 "#PWR?" H 3900 2200 50  0001 C CNN
F 1 "GND" H 3905 2277 50  0000 C CNN
F 2 "" H 3900 2450 50  0001 C CNN
F 3 "" H 3900 2450 50  0001 C CNN
	1    3900 2450
	1    0    0    -1  
$EndComp
Wire Wire Line
	2300 2450 2750 2450
Connection ~ 2750 2450
$EndSCHEMATC
